A2_Task4/simulation/qsim/ward_switch_15.msim.vcd
$comment
	File created using the following command:
		vcd file ward_switch_15.msim.vcd -direction
$end
$date
	Mon Feb 17 01:50:38 2020
$end
$version
	ModelSim Version 10.5b
$end
$timescale
	1ps
$end

$scope module ward_switch_15_vhd_vec_tst $end
$var wire 1 ! input [15] $end
$var wire 1 " input [14] $end
$var wire 1 # input [13] $end
$var wire 1 $ input [12] $end
$var wire 1 % input [11] $end
$var wire 1 & input [10] $end
$var wire 1 ' input [9] $end
$var wire 1 ( input [8] $end
$var wire 1 ) input [7] $end
$var wire 1 * input [6] $end
$var wire 1 + input [5] $end
$var wire 1 , input [4] $end
$var wire 1 - input [3] $end
$var wire 1 . input [2] $end
$var wire 1 / input [1] $end
$var wire 1 0 input [0] $end
$var wire 1 1 output [13] $end
$var wire 1 2 output [12] $end
$var wire 1 3 output [11] $end
$var wire 1 4 output [10] $end
$var wire 1 5 output [9] $end
$var wire 1 6 output [8] $end
$var wire 1 7 output [7] $end
$var wire 1 8 output [6] $end
$var wire 1 9 output [5] $end
$var wire 1 : output [4] $end
$var wire 1 ; output [3] $end
$var wire 1 < output [2] $end
$var wire 1 = output [1] $end
$var wire 1 > output [0] $end
$var wire 1 ? signal_4 [3] $end
$var wire 1 @ signal_4 [2] $end
$var wire 1 A signal_4 [1] $end
$var wire 1 B signal_4 [0] $end

$scope module i1 $end
$var wire 1 C gnd $end
$var wire 1 D vcc $end
$var wire 1 E unknown $end
$var wire 1 F devoe $end
$var wire 1 G devclrn $end
$var wire 1 H devpor $end
$var wire 1 I ww_devoe $end
$var wire 1 J ww_devclrn $end
$var wire 1 K ww_devpor $end
$var wire 1 L ww_input [15] $end
$var wire 1 M ww_input [14] $end
$var wire 1 N ww_input [13] $end
$var wire 1 O ww_input [12] $end
$var wire 1 P ww_input [11] $end
$var wire 1 Q ww_input [10] $end
$var wire 1 R ww_input [9] $end
$var wire 1 S ww_input [8] $end
$var wire 1 T ww_input [7] $end
$var wire 1 U ww_input [6] $end
$var wire 1 V ww_input [5] $end
$var wire 1 W ww_input [4] $end
$var wire 1 X ww_input [3] $end
$var wire 1 Y ww_input [2] $end
$var wire 1 Z ww_input [1] $end
$var wire 1 [ ww_input [0] $end
$var wire 1 \ ww_output [13] $end
$var wire 1 ] ww_output [12] $end
$var wire 1 ^ ww_output [11] $end
$var wire 1 _ ww_output [10] $end
$var wire 1 ` ww_output [9] $end
$var wire 1 a ww_output [8] $end
$var wire 1 b ww_output [7] $end
$var wire 1 c ww_output [6] $end
$var wire 1 d ww_output [5] $end
$var wire 1 e ww_output [4] $end
$var wire 1 f ww_output [3] $end
$var wire 1 g ww_output [2] $end
$var wire 1 h ww_output [1] $end
$var wire 1 i ww_output [0] $end
$var wire 1 j ww_signal_4 [3] $end
$var wire 1 k ww_signal_4 [2] $end
$var wire 1 l ww_signal_4 [1] $end
$var wire 1 m ww_signal_4 [0] $end
$var wire 1 n \~QUARTUS_CREATED_GND~I_combout\ $end
$var wire 1 o \input[15]~input_o\ $end
$var wire 1 p \input[13]~input_o\ $end
$var wire 1 q \input[10]~input_o\ $end
$var wire 1 r \input[9]~input_o\ $end
$var wire 1 s \encoder|encoder_out~10_combout\ $end
$var wire 1 t \input[14]~input_o\ $end
$var wire 1 u \input[12]~input_o\ $end
$var wire 1 v \input[11]~input_o\ $end
$var wire 1 w \input[8]~input_o\ $end
$var wire 1 x \input[7]~input_o\ $end
$var wire 1 y \encoder|encoder_out~6_combout\ $end
$var wire 1 z \encoder|encoder_out[3]~14_combout\ $end
$var wire 1 { \encoder|encoder_out~4_combout\ $end
$var wire 1 | \input[2]~input_o\ $end
$var wire 1 } \input[5]~input_o\ $end
$var wire 1 ~ \input[1]~input_o\ $end
$var wire 1 !! \input[0]~input_o\ $end
$var wire 1 "! \input[3]~input_o\ $end
$var wire 1 #! \encoder|encoder_out~1_combout\ $end
$var wire 1 $! \input[6]~input_o\ $end
$var wire 1 %! \input[4]~input_o\ $end
$var wire 1 &! \encoder|encoder_out~2_combout\ $end
$var wire 1 '! \encoder|encoder_out~3_combout\ $end
$var wire 1 (! \encoder|encoder_out~0_combout\ $end
$var wire 1 )! \encoder|encoder_out[0]~5_combout\ $end
$var wire 1 *! \encoder|encoder_out[2]~12_combout\ $end
$var wire 1 +! \encoder|encoder_out~11_combout\ $end
$var wire 1 ,! \encoder|encoder_out[2]~13_combout\ $end
$var wire 1 -! \encoder|encoder_out[1]~7_combout\ $end
$var wire 1 .! \encoder|encoder_out[1]~8_combout\ $end
$var wire 1 /! \encoder|encoder_out[1]~9_combout\ $end
$var wire 1 0! \decoder|Mux10~0_combout\ $end
$var wire 1 1! \decoder|Mux9~0_combout\ $end
$var wire 1 2! \decoder|Mux8~0_combout\ $end
$var wire 1 3! \decoder|Mux7~0_combout\ $end
$var wire 1 4! \decoder|Mux6~0_combout\ $end
$var wire 1 5! \decoder|Mux5~0_combout\ $end
$var wire 1 6! \decoder|Mux4~0_combout\ $end
$var wire 1 7! \encoder|encoder_out~15_combout\ $end
$var wire 1 8! \decoder|Mux3~0_combout\ $end
$var wire 1 9! \ALT_INV_input[9]~input_o\ $end
$var wire 1 :! \ALT_INV_input[8]~input_o\ $end
$var wire 1 ;! \ALT_INV_input[11]~input_o\ $end
$var wire 1 <! \ALT_INV_input[13]~input_o\ $end
$var wire 1 =! \ALT_INV_input[15]~input_o\ $end
$var wire 1 >! \encoder|ALT_INV_encoder_out~15_combout\ $end
$var wire 1 ?! \decoder|ALT_INV_Mux4~0_combout\ $end
$var wire 1 @! \decoder|ALT_INV_Mux5~0_combout\ $end
$var wire 1 A! \decoder|ALT_INV_Mux6~0_combout\ $end
$var wire 1 B! \decoder|ALT_INV_Mux7~0_combout\ $end
$var wire 1 C! \decoder|ALT_INV_Mux8~0_combout\ $end
$var wire 1 D! \decoder|ALT_INV_Mux9~0_combout\ $end
$var wire 1 E! \encoder|ALT_INV_encoder_out[3]~14_combout\ $end
$var wire 1 F! \encoder|ALT_INV_encoder_out[2]~13_combout\ $end
$var wire 1 G! \encoder|ALT_INV_encoder_out[2]~12_combout\ $end
$var wire 1 H! \encoder|ALT_INV_encoder_out~11_combout\ $end
$var wire 1 I! \encoder|ALT_INV_encoder_out~10_combout\ $end
$var wire 1 J! \encoder|ALT_INV_encoder_out[1]~9_combout\ $end
$var wire 1 K! \encoder|ALT_INV_encoder_out[1]~8_combout\ $end
$var wire 1 L! \encoder|ALT_INV_encoder_out[1]~7_combout\ $end
$var wire 1 M! \encoder|ALT_INV_encoder_out~6_combout\ $end
$var wire 1 N! \encoder|ALT_INV_encoder_out[0]~5_combout\ $end
$var wire 1 O! \encoder|ALT_INV_encoder_out~4_combout\ $end
$var wire 1 P! \encoder|ALT_INV_encoder_out~3_combout\ $end
$var wire 1 Q! \encoder|ALT_INV_encoder_out~2_combout\ $end
$var wire 1 R! \encoder|ALT_INV_encoder_out~1_combout\ $end
$var wire 1 S! \encoder|ALT_INV_encoder_out~0_combout\ $end
$var wire 1 T! \ALT_INV_input[10]~input_o\ $end
$var wire 1 U! \ALT_INV_input[12]~input_o\ $end
$var wire 1 V! \ALT_INV_input[14]~input_o\ $end
$var wire 1 W! \ALT_INV_input[7]~input_o\ $end
$var wire 1 X! \ALT_INV_input[4]~input_o\ $end
$var wire 1 Y! \ALT_INV_input[6]~input_o\ $end
$var wire 1 Z! \ALT_INV_input[3]~input_o\ $end
$var wire 1 [! \ALT_INV_input[1]~input_o\ $end
$var wire 1 \! \ALT_INV_input[0]~input_o\ $end
$var wire 1 ]! \ALT_INV_input[2]~input_o\ $end
$var wire 1 ^! \ALT_INV_input[5]~input_o\ $end
$upscope $end
$upscope $end
$enddefinitions $end
#0
$dumpvars
0C
1D
xE
1F
1G
1H
1I
1J
1K
xn
0o
0p
0q
0r
1s
0t
0u
0v
0w
0x
1y
0z
1{
0|
0}
0~
0!!
0"!
0#!
0$!
0%!
1&!
1'!
0(!
0)!
1*!
1+!
0,!
0-!
1.!
0/!
00!
01!
02!
03!
04!
05!
06!
17!
18!
19!
1:!
1;!
1<!
1=!
0>!
1?!
1@!
1A!
1B!
1C!
1D!
1E!
1F!
0G!
0H!
0I!
1J!
0K!
1L!
0M!
1N!
0O!
0P!
0Q!
1R!
1S!
1T!
1U!
1V!
1W!
1X!
1Y!
1Z!
1[!
1\!
1]!
1^!
0!
0"
0#
0$
0%
0&
0'
0(
0)
0*
0+
0,
0-
0.
0/
00
0L
0M
0N
0O
0P
0Q
0R
0S
0T
0U
0V
0W
0X
0Y
0Z
0[
1\
1]
1^
1_
1`
1a
0b
1c
1d
1e
1f
1g
1h
0i
0j
0k
0l
0m
11
12
13
14
15
16
07
18
19
1:
1;
1<
1=
0>
0?
0@
0A
0B
$end
#100000
1.
1/
10
1[
1Z
1Y
1|
1~
1!!
0\!
0[!
0]!
1-!
1#!
0R!
0L!
1/!
1)!
0N!
0J!
10!
11!
12!
0C!
0D!
1m
1l
1B
1A
1i
0h
0g
1>
0=
0<
#200000
00
1-
0[
1X
1"!
0!!
1\!
0Z!
0+!
0-!
0#!
1R!
1L!
1H!
1,!
0/!
0)!
1N!
1J!
0F!
01!
13!
16!
0?!
0B!
1D!
0m
0l
1k
0B
0A
1@
1h
0f
0c
1=
0;
08
#300000
10
0-
0/
1,
1[
0Z
0X
1W
1%!
0"!
0~
1!!
0\!
1[!
1Z!
0X!
0&!
1#!
0R!
1Q!
1)!
0N!
03!
15!
06!
1?!
0@!
1B!
1m
1B
1f
0d
1c
1;
09
18
#400000
00
1-
1#
0[
1X
1N
1p
1"!
0!!
1\!
0Z!
0<!
1z
0'!
0*!
0.!
07!
0#!
1R!
1>!
1K!
1G!
1P!
0E!
11!
05!
1/!
08!
0)!
1N!
0J!
1@!
0D!
1j
01!
13!
16!
1?
0?!
0B!
1D!
0m
0a
0`
0_
0\
1l
0h
1d
0B
1A
06
05
04
01
0=
19
1h
0f
0c
1=
0;
08
#500000
10
0-
0#
1/
0,
0.
1"
1+
1[
1Z
0Y
0X
0W
1V
0N
1M
1t
0p
1}
0%!
0"!
0|
1~
1!!
0\!
0[!
1]!
1Z!
1X!
0^!
1<!
0V!
0{
1'!
17!
1&!
1-!
0L!
0Q!
0>!
0P!
1O!
1)!
0N!
03!
15!
06!
1?!
0@!
1B!
1m
1B
1f
0d
1c
1;
09
18
#600000
00
1-
0"
1%
0[
1X
1P
0M
0t
1v
1"!
0!!
1\!
0Z!
0;!
1V!
0z
18!
0y
1{
0'!
1.!
07!
0-!
1L!
1>!
0K!
1P!
0O!
1M!
1E!
00!
11!
13!
05!
1z
0)!
08!
0/!
1J!
1N!
0E!
1@!
0B!
0D!
1a
1`
1_
1\
0j
10!
02!
03!
14!
16
15
14
11
0?
0A!
1B!
1C!
0l
0a
0`
0_
0\
0m
1j
0i
0h
0f
1d
0B
0A
1?
0>
06
05
04
01
0=
0;
19
1i
1g
1f
0e
1>
1<
1;
0:
#700000
10
0-
0%
0/
1,
1)
1[
0Z
0X
1W
1T
0P
0v
1x
1%!
0"!
0~
1!!
0\!
1[!
1Z!
0X!
0W!
1;!
1*!
17!
0>!
0G!
0,!
18!
1F!
01!
04!
1A!
1D!
1a
1`
1_
1\
0k
16
15
14
11
0@
1h
1e
1=
1:
#800000
00
1-
0)
1$
0[
1X
0T
1O
1u
0x
1"!
0!!
1\!
0Z!
1W!
0U!
0{
0*!
08!
1'!
1,!
0F!
0P!
1G!
1O!
1)!
11!
14!
0A!
0D!
0N!
1k
0a
0`
0_
0\
12!
04!
1@
06
05
04
01
1A!
0C!
1m
0h
0e
1B
0=
0:
0g
1e
0<
1:
#900000
10
0-
0$
0,
0+
1[
0X
0W
0V
0O
0u
0}
0%!
0"!
1!!
0\!
1Z!
1X!
1^!
1U!
1y
1{
1*!
18!
1+!
1#!
0R!
0H!
0G!
0O!
0M!
0z
0,!
1F!
1E!
1a
1`
1_
1\
00!
13!
16!
16
15
14
11
0?!
0B!
0k
0j
0@
0?
0i
0f
0c
0>
0;
08
