A3/A3_Task3/simulation/qsim/Deluxe_Regular.msim.vcd
$comment
	File created using the following command:
		vcd file Deluxe_Regular.msim.vcd -direction
$end
$date
	Mon Mar 16 03:32:00 2020
$end
$version
	ModelSim Version 10.5b
$end
$timescale
	1ps
$end

$scope module deluxe_regular_vhd_vec_tst $end
$var wire 1 ! brush $end
$var wire 1 " clk $end
$var wire 1 # soap $end
$var wire 1 $ token_1 $end
$var wire 1 % token_2 $end
$var wire 1 & water $end

$scope module i1 $end
$var wire 1 ' gnd $end
$var wire 1 ( vcc $end
$var wire 1 ) unknown $end
$var wire 1 * devoe $end
$var wire 1 + devclrn $end
$var wire 1 , devpor $end
$var wire 1 - ww_devoe $end
$var wire 1 . ww_devclrn $end
$var wire 1 / ww_devpor $end
$var wire 1 0 ww_clk $end
$var wire 1 1 ww_token_1 $end
$var wire 1 2 ww_token_2 $end
$var wire 1 3 ww_soap $end
$var wire 1 4 ww_water $end
$var wire 1 5 ww_brush $end
$var wire 1 6 \~QUARTUS_CREATED_GND~I_combout\ $end
$var wire 1 7 \clk~input_o\ $end
$var wire 1 8 \clk~inputCLKENA0_outclk\ $end
$var wire 1 9 \current_state.s13~DUPLICATE_q\ $end
$var wire 1 : \current_state.s26~q\ $end
$var wire 1 ; \current_state.s24~q\ $end
$var wire 1 < \Selector6~0_combout\ $end
$var wire 1 = \current_state.s23~DUPLICATE_q\ $end
$var wire 1 > \Selector7~0_combout\ $end
$var wire 1 ? \current_state.s24~DUPLICATE_q\ $end
$var wire 1 @ \current_state.s25~DUPLICATE_q\ $end
$var wire 1 A \Selector8~0_combout\ $end
$var wire 1 B \current_state.s25~q\ $end
$var wire 1 C \Selector9~0_combout\ $end
$var wire 1 D \current_state.s26~DUPLICATE_q\ $end
$var wire 1 E \token_2~input_o\ $end
$var wire 1 F \token_1~input_o\ $end
$var wire 1 G \Selector1~0_combout\ $end
$var wire 1 H \current_state.s11~q\ $end
$var wire 1 I \current_state.s12~q\ $end
$var wire 1 J \start_timer~3_combout\ $end
$var wire 1 K \start_timer~1_combout\ $end
$var wire 1 L \current_state.s23~q\ $end
$var wire 1 M \WideOr10~0_combout\ $end
$var wire 1 N \start_timer~2_combout\ $end
$var wire 1 O \WideOr10~1_combout\ $end
$var wire 1 P \t0|cnt~4_combout\ $end
$var wire 1 Q \t0|Add0~2_combout\ $end
$var wire 1 R \t0|cnt~2_combout\ $end
$var wire 1 S \Selector2~0_combout\ $end
$var wire 1 T \current_state.s12~DUPLICATE_q\ $end
$var wire 1 U \start_timer~0_combout\ $end
$var wire 1 V \t0|Add0~3_combout\ $end
$var wire 1 W \t0|cnt~3_combout\ $end
$var wire 1 X \Selector3~0_combout\ $end
$var wire 1 Y \current_state.s13~q\ $end
$var wire 1 Z \time_10sec~0_combout\ $end
$var wire 1 [ \Selector0~0_combout\ $end
$var wire 1 \ \current_state.Initial~q\ $end
$var wire 1 ] \t0|Add0~0_combout\ $end
$var wire 1 ^ \t0|cnt~0_combout\ $end
$var wire 1 _ \Selector4~0_combout\ $end
$var wire 1 ` \current_state.s21~q\ $end
$var wire 1 a \WideOr10~2_combout\ $end
$var wire 1 b \t0|Add0~1_combout\ $end
$var wire 1 c \t0|cnt~1_combout\ $end
$var wire 1 d \current_state.s22~q\ $end
$var wire 1 e \Selector5~0_combout\ $end
$var wire 1 f \current_state.s22~DUPLICATE_q\ $end
$var wire 1 g \soap~0_combout\ $end
$var wire 1 h \water~0_combout\ $end
$var wire 1 i \brush~0_combout\ $end
$var wire 1 j \t0|cnt\ [4] $end
$var wire 1 k \t0|cnt\ [3] $end
$var wire 1 l \t0|cnt\ [2] $end
$var wire 1 m \t0|cnt\ [1] $end
$var wire 1 n \t0|cnt\ [0] $end
$var wire 1 o \ALT_INV_current_state.s26~DUPLICATE_q\ $end
$var wire 1 p \ALT_INV_current_state.s13~DUPLICATE_q\ $end
$var wire 1 q \ALT_INV_current_state.s24~DUPLICATE_q\ $end
$var wire 1 r \ALT_INV_current_state.s25~DUPLICATE_q\ $end
$var wire 1 s \ALT_INV_current_state.s12~DUPLICATE_q\ $end
$var wire 1 t \ALT_INV_current_state.s23~DUPLICATE_q\ $end
$var wire 1 u \ALT_INV_current_state.s22~DUPLICATE_q\ $end
$var wire 1 v \ALT_INV_token_2~input_o\ $end
$var wire 1 w \ALT_INV_token_1~input_o\ $end
$var wire 1 x \t0|ALT_INV_Add0~3_combout\ $end
$var wire 1 y \t0|ALT_INV_Add0~2_combout\ $end
$var wire 1 z \t0|ALT_INV_Add0~1_combout\ $end
$var wire 1 { \ALT_INV_WideOr10~2_combout\ $end
$var wire 1 | \ALT_INV_WideOr10~1_combout\ $end
$var wire 1 } \ALT_INV_WideOr10~0_combout\ $end
$var wire 1 ~ \ALT_INV_start_timer~3_combout\ $end
$var wire 1 !! \ALT_INV_start_timer~2_combout\ $end
$var wire 1 "! \ALT_INV_start_timer~1_combout\ $end
$var wire 1 #! \ALT_INV_Selector9~0_combout\ $end
$var wire 1 $! \t0|ALT_INV_Add0~0_combout\ $end
$var wire 1 %! \t0|ALT_INV_cnt\ [4] $end
$var wire 1 &! \t0|ALT_INV_cnt\ [3] $end
$var wire 1 '! \t0|ALT_INV_cnt\ [2] $end
$var wire 1 (! \t0|ALT_INV_cnt\ [1] $end
$var wire 1 )! \t0|ALT_INV_cnt\ [0] $end
$var wire 1 *! \ALT_INV_start_timer~0_combout\ $end
$var wire 1 +! \ALT_INV_Selector0~0_combout\ $end
$var wire 1 ,! \ALT_INV_current_state.s26~q\ $end
$var wire 1 -! \ALT_INV_current_state.s13~q\ $end
$var wire 1 .! \ALT_INV_time_10sec~0_combout\ $end
$var wire 1 /! \ALT_INV_current_state.s24~q\ $end
$var wire 1 0! \ALT_INV_brush~0_combout\ $end
$var wire 1 1! \ALT_INV_current_state.Initial~q\ $end
$var wire 1 2! \ALT_INV_current_state.s21~q\ $end
$var wire 1 3! \ALT_INV_current_state.s11~q\ $end
$var wire 1 4! \ALT_INV_current_state.s25~q\ $end
$var wire 1 5! \ALT_INV_current_state.s12~q\ $end
$var wire 1 6! \ALT_INV_current_state.s23~q\ $end
$var wire 1 7! \ALT_INV_current_state.s22~q\ $end
$upscope $end
$upscope $end
$enddefinitions $end
#0
$dumpvars
0!
0"
0#
0$
0%
0&
0'
1(
x)
1*
1+
1,
1-
1.
1/
00
01
02
03
04
05
x6
07
08
09
0:
0;
0<
0=
0>
0?
0@
0A
0B
0C
0D
0E
0F
0G
0H
0I
0J
0K
0L
0M
0N
1O
1P
0Q
0R
0S
0T
0U
0V
0W
0X
0Y
0Z
0[
0\
1]
1^
0_
0`
0a
0b
0c
0d
0e
0f
0g
0h
1i
1o
1p
1q
1r
1s
1t
1u
1v
1w
1x
1y
1z
1{
0|
1}
1~
1!!
1"!
1#!
0$!
1*!
1+!
1,!
1-!
1.!
1/!
00!
11!
12!
13!
14!
15!
16!
17!
0j
0k
0l
0m
0n
1%!
1&!
1'!
1(!
1)!
$end
#3500
1"
10
17
18
1n
1m
0(!
0)!
0P
#7000
0"
00
07
08
#10000
1$
11
1F
0w
1G
1[
1a
0{
0+!
0^
#10500
1"
10
17
18
1H
0n
1\
0m
1(!
01!
1)!
03!
1h
0a
1{
1P
1^
14
1&
#14000
0"
00
07
08
#17500
1"
10
17
18
1n
1m
0(!
0)!
0P
#20000
0$
01
0F
1w
#21000
0"
00
07
08
#24500
1"
10
17
18
0n
1)!
1P
1Q
0]
1$!
0y
1R
0^
#28000
0"
00
07
08
#31500
1"
10
17
18
1n
1l
0m
1(!
0'!
0)!
0P
#35000
0"
00
07
08
#38500
1"
10
17
18
0n
1)!
1P
1]
0$!
1^
#42000
0"
00
07
08
#45500
1"
10
17
18
1n
1m
0(!
0)!
0P
#49000
0"
00
07
08
#52500
1"
10
17
18
0n
1)!
1P
0Q
0]
1b
0z
1$!
1y
0R
0^
1c
#56000
0"
00
07
08
#59500
1"
10
17
18
1n
0l
0m
1k
0&!
1(!
1'!
0)!
0P
#63000
0"
00
07
08
#66500
1"
10
17
18
0n
1)!
1P
1]
0$!
1^
#70000
0"
00
07
08
#73500
1"
10
17
18
1n
1m
0(!
0)!
0P
0G
1J
1S
1Z
0.!
0~
0O
1a
0{
1|
0^
0c
#77000
0"
00
07
08
#80500
1"
10
17
18
0H
1I
0n
1T
0m
0k
1&!
1(!
0s
1)!
05!
13!
0a
0i
0J
0Z
0b
1z
1.!
1~
10!
1{
1O
0|
15
1P
1^
1!
#84000
0"
00
07
08
#87500
1"
10
17
18
1n
1m
0(!
0)!
0P
#91000
0"
00
07
08
#94500
1"
10
17
18
0n
1)!
1P
1Q
0]
1$!
0y
1R
0^
#98000
0"
00
07
08
#101500
1"
10
17
18
1n
1l
0m
1(!
0'!
0)!
0P
#105000
0"
00
07
08
#108500
1"
10
17
18
0n
1)!
1P
1]
0$!
1^
#112000
0"
00
07
08
#115500
1"
10
17
18
1n
1m
0(!
0)!
0P
#119000
0"
00
07
08
#122500
1"
10
17
18
0n
1)!
1P
0Q
0]
1b
0z
1$!
1y
0R
0^
1c
#126000
0"
00
07
08
#129500
1"
10
17
18
1n
0l
0m
1k
0&!
1(!
1'!
0)!
0P
#133000
0"
00
07
08
#136500
1"
10
17
18
0n
1)!
1P
1]
0$!
1^
#140000
0"
00
07
08
#143500
1"
10
17
18
1n
1m
0(!
0)!
0P
1Z
0.!
#147000
0"
00
07
08
#150500
1"
10
17
18
0n
1)!
1P
1Q
0]
1$!
0y
1R
0^
#154000
0"
00
07
08
#157500
1"
10
17
18
1n
1l
0m
1(!
0'!
0)!
0P
0Z
1.!
#161000
0"
00
07
08
#164500
1"
10
17
18
0n
1)!
1P
1]
0$!
1^
#168000
0"
00
07
08
#171500
1"
10
17
18
1n
1m
0(!
0)!
0P
1Z
0.!
#175000
0"
00
07
08
#178500
1"
10
17
18
0n
1)!
1P
0Q
1V
0]
0b
1z
1$!
0x
1y
0R
1W
0^
0c
#182000
0"
00
07
08
#185500
1"
10
17
18
1n
0l
1j
0m
0k
1&!
1(!
0%!
1'!
0)!
0P
0Z
1.!
#189000
0"
00
07
08
#192500
1"
10
17
18
0n
1)!
1P
1]
0$!
1^
#196000
0"
00
07
08
#199500
1"
10
17
18
1n
1m
0(!
0)!
0P
#203000
0"
00
07
08
#206500
1"
10
17
18
0n
1)!
1P
1Q
0]
1$!
0y
1R
0^
#210000
0"
00
07
08
#213500
1"
10
17
18
1n
1l
0m
1(!
0'!
0)!
0P
1J
0S
1U
1X
0*!
0~
0O
0R
0W
1|
#217000
0"
00
07
08
#220500
1"
10
17
18
19
0I
0n
0l
0T
0j
1Y
0-!
1%!
1s
1'!
1)!
15!
0p
1]
0Q
0h
0J
0U
0V
1x
1*!
1~
1y
0$!
1O
0|
04
1P
1^
0&
#224000
0"
00
07
08
#227500
1"
10
17
18
1n
1m
0(!
0)!
0P
#231000
0"
00
07
08
#234500
1"
10
17
18
0n
1)!
1P
1Q
0]
1$!
0y
1R
0^
#238000
0"
00
07
08
#241500
1"
10
17
18
1n
1l
0m
1(!
0'!
0)!
0P
#245000
0"
00
07
08
#248500
1"
10
17
18
0n
1)!
1P
1]
0$!
1^
#252000
0"
00
07
08
#255500
1"
10
17
18
1n
1m
0(!
0)!
0P
#259000
0"
00
07
08
#262500
1"
10
17
18
0n
1)!
1P
0Q
0]
1b
0z
1$!
1y
0R
0^
1c
#266000
0"
00
07
08
#269500
1"
10
17
18
1n
0l
0m
1k
0&!
1(!
1'!
0)!
0P
#273000
0"
00
07
08
#276500
1"
10
17
18
0n
1)!
1P
1]
0$!
1^
#280000
0"
00
07
08
#283500
1"
10
17
18
1n
1m
0(!
0)!
0P
1U
0X
1Z
0.!
0*!
0^
0c
0[
1+!
#287000
0"
00
07
08
#290500
1"
10
17
18
09
0n
0Y
0\
0m
0k
1&!
1(!
11!
1-!
1)!
1p
1i
0U
0Z
0b
1z
1.!
1*!
00!
1P
1^
05
0!
#294000
0"
00
07
08
#297500
1"
10
17
18
1n
1m
0(!
0)!
0P
#301000
0"
00
07
08
#304500
1"
10
17
18
0n
1)!
1P
1Q
0]
1$!
0y
1R
0^
#308000
0"
00
07
08
#311500
1"
10
17
18
1n
1l
0m
1(!
0'!
0)!
0P
#315000
0"
00
07
08
#318500
1"
10
17
18
0n
1)!
1P
1]
0$!
1^
#322000
0"
00
07
08
#325500
1"
10
17
18
1n
1m
0(!
0)!
0P
#329000
0"
00
07
08
#332500
1"
10
17
18
0n
1)!
1P
0Q
0]
1b
0z
1$!
1y
0R
0^
1c
#336000
0"
00
07
08
#339500
1"
10
17
18
1n
0l
0m
1k
0&!
1(!
1'!
0)!
0P
#340000
1%
12
1E
0v
1[
1_
1a
0{
0+!
0c
#343000
0"
00
07
08
#346500
1"
10
17
18
0n
1\
1`
0k
1&!
02!
01!
1)!
1]
0a
1h
0b
1z
1{
0$!
1P
1^
14
1&
#350000
0"
00
07
08
#353500
1"
10
17
18
1n
1m
0(!
0)!
0P
#357000
0"
00
07
08
#360000
0%
02
0E
1v
#360500
1"
10
17
18
0n
1)!
1P
1Q
0]
1$!
0y
1R
0^
#364000
0"
00
07
08
#367500
1"
10
17
18
1n
1l
0m
1(!
0'!
0)!
0P
#371000
0"
00
07
08
#374500
1"
10
17
18
0n
1)!
1P
1]
0$!
1^
#378000
0"
00
07
08
#381500
1"
10
17
18
1n
1m
0(!
0)!
0P
#385000
0"
00
07
08
#388500
1"
10
17
18
0n
1)!
1P
0Q
0]
1b
0z
1$!
1y
0R
0^
1c
#392000
0"
00
07
08
#395500
1"
10
17
18
1n
0l
0m
1k
0&!
1(!
1'!
0)!
0P
#399000
0"
00
07
08
#402500
1"
10
17
18
0n
1)!
1P
1]
0$!
1^
#406000
0"
00
07
08
#409500
1"
10
17
18
1n
1m
0(!
0)!
0P
1M
1Z
0_
1e
0.!
0}
0O
1a
0{
1|
0^
0c
#413000
0"
00
07
08
#416500
1"
10
17
18
0n
0m
0`
0k
1d
1f
0u
07!
1&!
12!
1(!
1)!
0a
0h
0Z
0b
0M
1g
1}
1z
1.!
1{
1O
0|
13
04
1P
1^
1#
0&
#420000
0"
00
07
08
#423500
1"
10
17
18
1n
1m
0(!
0)!
0P
#427000
0"
00
07
08
#430500
1"
10
17
18
0n
1)!
1P
1Q
0]
1$!
0y
1R
0^
#434000
0"
00
07
08
#437500
1"
10
17
18
1n
1l
0m
1(!
0'!
0)!
0P
#441000
0"
00
07
08
#444500
1"
10
17
18
0n
1)!
1P
1]
0$!
1^
#448000
0"
00
07
08
#451500
1"
10
17
18
1n
1m
0(!
0)!
0P
#455000
0"
00
07
08
#458500
1"
10
17
18
0n
1)!
1P
0Q
0]
1b
0z
1$!
1y
0R
0^
1c
#462000
0"
00
07
08
#465500
1"
10
17
18
1n
0l
0m
1k
0&!
1(!
1'!
0)!
0P
#469000
0"
00
07
08
#472500
1"
10
17
18
0n
1)!
1P
1]
0$!
1^
#476000
0"
00
07
08
#479500
1"
10
17
18
1n
1m
0(!
0)!
0P
1<
1M
1Z
0e
0.!
0}
0O
1|
0^
0c
#483000
0"
00
07
08
#486500
1"
10
17
18
1=
1L
0n
0m
0k
0d
0f
1u
17!
1&!
1(!
1)!
06!
0t
0Z
0b
0i
0M
1}
10!
1z
1.!
1O
0|
15
1P
1^
1!
#490000
0"
00
07
08
#493500
1"
10
17
18
1n
1m
0(!
0)!
0P
#497000
0"
00
07
08
#500500
1"
10
17
18
0n
1)!
1P
1Q
0]
1$!
0y
1R
0^
#504000
0"
00
07
08
#507500
1"
10
17
18
1n
1l
0m
1(!
0'!
0)!
0P
#511000
0"
00
07
08
#514500
1"
10
17
18
0n
1)!
1P
1]
0$!
1^
#518000
0"
00
07
08
#521500
1"
10
17
18
1n
1m
0(!
0)!
0P
#525000
0"
00
07
08
#528500
1"
10
17
18
0n
1)!
1P
0Q
0]
1b
0z
1$!
1y
0R
0^
1c
#532000
0"
00
07
08
#535500
1"
10
17
18
1n
0l
0m
1k
0&!
1(!
1'!
0)!
0P
#539000
0"
00
07
08
#542500
1"
10
17
18
0n
1)!
1P
1]
0$!
1^
#546000
0"
00
07
08
#549500
1"
10
17
18
1n
1m
0(!
0)!
0P
0<
1>
1M
1N
1Z
0.!
0!!
0}
0O
1|
0^
0c
#553000
0"
00
07
08
#556500
1"
10
17
18
1;
0=
1?
0L
0n
0m
0k
1&!
1(!
1)!
16!
0q
1t
0/!
0g
0M
0N
0Z
0b
1z
1.!
1!!
1}
1O
0|
03
1P
1^
0#
#560000
0"
00
07
08
#563500
1"
10
17
18
1n
1m
0(!
0)!
0P
#567000
0"
00
07
08
#570500
1"
10
17
18
0n
1)!
1P
1Q
0]
1$!
0y
1R
0^
#574000
0"
00
07
08
#577500
1"
10
17
18
1n
1l
0m
1(!
0'!
0)!
0P
#581000
0"
00
07
08
#584500
1"
10
17
18
0n
1)!
1P
1]
0$!
1^
#588000
0"
00
07
08
#591500
1"
10
17
18
1n
1m
0(!
0)!
0P
#595000
0"
00
07
08
#598500
1"
10
17
18
0n
1)!
1P
0Q
0]
1b
0z
1$!
1y
0R
0^
1c
#602000
0"
00
07
08
#605500
1"
10
17
18
1n
0l
0m
1k
0&!
1(!
1'!
0)!
0P
#609000
0"
00
07
08
#612500
1"
10
17
18
0n
1)!
1P
1]
0$!
1^
#616000
0"
00
07
08
#619500
1"
10
17
18
1n
1m
0(!
0)!
0P
1Z
0.!
#623000
0"
00
07
08
#626500
1"
10
17
18
0n
1)!
1P
1Q
0]
1$!
0y
1R
0^
#630000
0"
00
07
08
#633500
1"
10
17
18
1n
1l
0m
1(!
0'!
0)!
0P
0Z
1.!
#637000
0"
00
07
08
#640500
1"
10
17
18
0n
1)!
1P
1]
0$!
1^
#644000
0"
00
07
08
#647500
1"
10
17
18
1n
1m
0(!
0)!
0P
1Z
0.!
#651000
0"
00
07
08
#654500
1"
10
17
18
0n
1)!
1P
0Q
1V
0]
0b
1z
1$!
0x
1y
0R
1W
0^
0c
#658000
0"
00
07
08
#661500
1"
10
17
18
1n
0l
1j
0m
0k
1&!
1(!
0%!
1'!
0)!
0P
0Z
1.!
#665000
0"
00
07
08
#668500
1"
10
17
18
0n
1)!
1P
1]
0$!
1^
#672000
0"
00
07
08
#675500
1"
10
17
18
1n
1m
0(!
0)!
0P
#679000
0"
00
07
08
#682500
1"
10
17
18
0n
1)!
1P
1Q
0]
1$!
0y
1R
0^
#686000
0"
00
07
08
#689500
1"
10
17
18
1n
1l
0m
1(!
0'!
0)!
0P
0>
1A
1K
1N
0!!
0"!
0O
1|
0R
0W
#693000
0"
00
07
08
#696500
1"
10
17
18
0;
0?
1@
1B
0n
0l
0j
1%!
1'!
1)!
04!
0r
1q
1/!
1h
1]
0Q
0K
0N
0V
1x
1!!
1"!
1y
0$!
1O
0|
14
1P
1^
1&
#700000
0"
00
07
08
#703500
1"
10
17
18
1n
1m
0(!
0)!
0P
#707000
0"
00
07
08
#710500
1"
10
17
18
0n
1)!
1P
1Q
0]
1$!
0y
1R
0^
#714000
0"
00
07
08
#717500
1"
10
17
18
1n
1l
0m
1(!
0'!
0)!
0P
#721000
0"
00
07
08
#724500
1"
10
17
18
0n
1)!
1P
1]
0$!
1^
#728000
0"
00
07
08
#731500
1"
10
17
18
1n
1m
0(!
0)!
0P
#735000
0"
00
07
08
#738500
1"
10
17
18
0n
1)!
1P
0Q
0]
1b
0z
1$!
1y
0R
0^
1c
#742000
0"
00
07
08
#745500
1"
10
17
18
1n
0l
0m
1k
0&!
1(!
1'!
0)!
0P
#749000
0"
00
07
08
#752500
1"
10
17
18
0n
1)!
1P
1]
0$!
1^
#756000
0"
00
07
08
#759500
1"
10
17
18
1n
1m
0(!
0)!
0P
1Z
0.!
#763000
0"
00
07
08
#766500
1"
10
17
18
0n
1)!
1P
1Q
0]
1$!
0y
1R
0^
#770000
0"
00
07
08
#773500
1"
10
17
18
1n
1l
0m
1(!
0'!
0)!
0P
0Z
1.!
#777000
0"
00
07
08
#780500
1"
10
17
18
0n
1)!
1P
1]
0$!
1^
#784000
0"
00
07
08
#787500
1"
10
17
18
1n
1m
0(!
0)!
0P
1Z
0.!
#791000
0"
00
07
08
#794500
1"
10
17
18
0n
1)!
1P
0Q
1V
0]
0b
1z
1$!
0x
1y
0R
1W
0^
0c
#798000
0"
00
07
08
#801500
1"
10
17
18
1n
0l
1j
0m
0k
1&!
1(!
0%!
1'!
0)!
0P
0Z
1.!
#805000
0"
00
07
08
#808500
1"
10
17
18
0n
1)!
1P
1]
0$!
1^
#812000
0"
00
07
08
#815500
1"
10
17
18
1n
1m
0(!
0)!
0P
#819000
0"
00
07
08
#822500
1"
10
17
18
0n
1)!
1P
1Q
0]
1$!
0y
1R
0^
#826000
0"
00
07
08
#829500
1"
10
17
18
1n
1l
0m
1(!
0'!
0)!
0P
#833000
0"
00
07
08
#836500
1"
10
17
18
0n
1)!
1P
1]
0$!
1^
#840000
0"
00
07
08
#843500
1"
10
17
18
1n
1m
0(!
0)!
0P
#847000
0"
00
07
08
#850500
1"
10
17
18
0n
1)!
1P
0Q
0]
1b
0z
1$!
1y
0R
0^
1c
#854000
0"
00
07
08
#857500
1"
10
17
18
1n
0l
0m
1k
0&!
1(!
1'!
0)!
0P
#861000
0"
00
07
08
#864500
1"
10
17
18
0n
1)!
1P
1]
0$!
1^
#868000
0"
00
07
08
#871500
1"
10
17
18
1n
1m
0(!
0)!
0P
1Z
0.!
#875000
0"
00
07
08
#878500
1"
10
17
18
0n
1)!
1P
1Q
0]
1$!
0y
1R
0^
#882000
0"
00
07
08
#885500
1"
10
17
18
1n
1l
0m
1(!
0'!
0)!
0P
0Z
1.!
#889000
0"
00
07
08
#892500
1"
10
17
18
0n
1)!
1P
1]
0$!
1^
#896000
0"
00
07
08
#899500
1"
10
17
18
1n
1m
0(!
0)!
0P
0A
1C
1K
1Z
0.!
0"!
0#!
0O
1|
0R
0W
0^
0c
#903000
0"
00
07
08
#906500
1"
10
17
18
1:
0@
0B
1D
0n
0l
0j
0m
0k
1&!
1(!
1%!
1'!
1)!
0o
14!
1r
0,!
0h
0[
0Q
0K
0V
0Z
0b
1z
1.!
1x
1"!
1y
1+!
1O
1[
0+!
0|
04
1P
1^
0&
#910000
0"
00
07
08
#913500
1"
10
17
18
1n
1m
0(!
0)!
0P
#917000
0"
00
07
08
#920500
1"
10
17
18
0n
1)!
1P
1Q
0]
1$!
0y
1R
0^
#924000
0"
00
07
08
#927500
1"
10
17
18
1n
1l
0m
1(!
0'!
0)!
0P
#931000
0"
00
07
08
#934500
1"
10
17
18
0n
1)!
1P
1]
0$!
1^
#938000
0"
00
07
08
#941500
1"
10
17
18
1n
1m
0(!
0)!
0P
#945000
0"
00
07
08
#948500
1"
10
17
18
0n
1)!
1P
0Q
0]
1b
0z
1$!
1y
0R
0^
1c
#952000
0"
00
07
08
#955500
1"
10
17
18
1n
0l
0m
1k
0&!
1(!
1'!
0)!
0P
#959000
0"
00
07
08
#962500
1"
10
17
18
0n
1)!
1P
1]
0$!
1^
#966000
0"
00
07
08
#969500
1"
10
17
18
1n
1m
0(!
0)!
0P
0C
1Z
0.!
1#!
0O
0[
1+!
1|
0^
0c
#973000
0"
00
07
08
#976500
1"
10
17
18
0:
0D
0n
0\
0m
0k
1&!
1(!
11!
1)!
1o
1,!
1O
1i
0Z
0b
1z
1.!
00!
0|
1P
1^
05
0!
#980000
0"
00
07
08
#983500
1"
10
17
18
1n
1m
0(!
0)!
0P
#987000
0"
00
07
08
#990500
1"
10
17
18
0n
1)!
1P
1Q
0]
1$!
0y
1R
0^
#994000
0"
00
07
08
#997500
1"
10
17
18
1n
1l
0m
1(!
0'!
0)!
0P
