A3/A3_Task2/simulation/qsim/regular.msim.vcd
$comment
	File created using the following command:
		vcd file regular.msim.vcd -direction
$end
$date
	Mon Mar 16 02:23:21 2020
$end
$version
	ModelSim Version 10.5b
$end
$timescale
	1ps
$end

$scope module regular_vhd_vec_tst $end
$var wire 1 ! brush $end
$var wire 1 " clk $end
$var wire 1 # token_1 $end
$var wire 1 $ water $end

$scope module i1 $end
$var wire 1 % gnd $end
$var wire 1 & vcc $end
$var wire 1 ' unknown $end
$var wire 1 ( devoe $end
$var wire 1 ) devclrn $end
$var wire 1 * devpor $end
$var wire 1 + ww_devoe $end
$var wire 1 , ww_devclrn $end
$var wire 1 - ww_devpor $end
$var wire 1 . ww_clk $end
$var wire 1 / ww_token_1 $end
$var wire 1 0 ww_water $end
$var wire 1 1 ww_brush $end
$var wire 1 2 \~QUARTUS_CREATED_GND~I_combout\ $end
$var wire 1 3 \clk~input_o\ $end
$var wire 1 4 \clk~inputCLKENA0_outclk\ $end
$var wire 1 5 \token_1~input_o\ $end
$var wire 1 6 \current_state.B10s~q\ $end
$var wire 1 7 \Selector0~0_combout\ $end
$var wire 1 8 \current_state.Initial~q\ $end
$var wire 1 9 \WideOr0~0_combout\ $end
$var wire 1 : \t0|cnt~4_combout\ $end
$var wire 1 ; \t0|Add0~0_combout\ $end
$var wire 1 < \t0|cnt~0_combout\ $end
$var wire 1 = \t0|Add0~2_combout\ $end
$var wire 1 > \t0|cnt~2_combout\ $end
$var wire 1 ? \Selector2~0_combout\ $end
$var wire 1 @ \current_state.WB20s~q\ $end
$var wire 1 A \t0|Add0~3_combout\ $end
$var wire 1 B \t0|cnt~3_combout\ $end
$var wire 1 C \Selector3~0_combout\ $end
$var wire 1 D \current_state.B10s~DUPLICATE_q\ $end
$var wire 1 E \t0|Add0~1_combout\ $end
$var wire 1 F \t0|cnt~1_combout\ $end
$var wire 1 G \Selector1~0_combout\ $end
$var wire 1 H \current_state.W10s~q\ $end
$var wire 1 I \water~0_combout\ $end
$var wire 1 J \brush~0_combout\ $end
$var wire 1 K \t0|cnt\ [4] $end
$var wire 1 L \t0|cnt\ [3] $end
$var wire 1 M \t0|cnt\ [2] $end
$var wire 1 N \t0|cnt\ [1] $end
$var wire 1 O \t0|cnt\ [0] $end
$var wire 1 P \ALT_INV_current_state.W10s~q\ $end
$var wire 1 Q \ALT_INV_current_state.B10s~DUPLICATE_q\ $end
$var wire 1 R \ALT_INV_token_1~input_o\ $end
$var wire 1 S \t0|ALT_INV_Add0~3_combout\ $end
$var wire 1 T \t0|ALT_INV_Add0~2_combout\ $end
$var wire 1 U \t0|ALT_INV_Add0~1_combout\ $end
$var wire 1 V \ALT_INV_WideOr0~0_combout\ $end
$var wire 1 W \t0|ALT_INV_Add0~0_combout\ $end
$var wire 1 X \t0|ALT_INV_cnt\ [4] $end
$var wire 1 Y \t0|ALT_INV_cnt\ [3] $end
$var wire 1 Z \t0|ALT_INV_cnt\ [2] $end
$var wire 1 [ \t0|ALT_INV_cnt\ [1] $end
$var wire 1 \ \t0|ALT_INV_cnt\ [0] $end
$var wire 1 ] \ALT_INV_Selector3~0_combout\ $end
$var wire 1 ^ \ALT_INV_Selector2~0_combout\ $end
$var wire 1 _ \ALT_INV_current_state.Initial~q\ $end
$var wire 1 ` \ALT_INV_current_state.B10s~q\ $end
$var wire 1 a \ALT_INV_current_state.WB20s~q\ $end
$upscope $end
$upscope $end
$enddefinitions $end
#0
$dumpvars
0!
0"
0#
0$
0%
1&
x'
1(
1)
1*
1+
1,
1-
0.
0/
00
01
x2
03
04
05
06
07
08
09
1:
1;
1<
0=
0>
0?
0@
0A
0B
0C
0D
0E
0F
0G
0H
0I
0J
1P
1Q
1R
1S
1T
1U
1V
0W
1]
1^
1_
1`
1a
0K
0L
0M
0N
0O
1X
1Y
1Z
1[
1\
$end
#5000
1"
1.
13
14
1O
1N
0[
0\
0:
#10000
0"
1#
0.
1/
15
03
04
0R
17
19
1G
0V
0<
#15000
1"
1.
13
14
18
0O
0N
1H
0P
1[
1\
0_
09
1I
1V
1:
1<
10
1$
#20000
0"
0.
03
04
#25000
1"
1.
13
14
1O
1N
0[
0\
0:
#30000
0"
0.
03
04
#35000
1"
0#
1.
0/
05
13
14
1R
0O
1\
1:
0;
1=
0T
1W
0<
1>
#40000
0"
0.
03
04
#45000
1"
1.
13
14
1O
0N
1M
0Z
1[
0\
0:
#50000
0"
0.
03
04
#55000
1"
1.
13
14
0O
1\
1:
1;
0W
1<
#60000
0"
0.
03
04
#65000
1"
1.
13
14
1O
1N
0[
0\
0:
#70000
0"
0.
03
04
#75000
1"
1.
13
14
0O
1\
1:
0;
0=
1E
0U
1T
1W
0<
0>
1F
#80000
0"
0.
03
04
#85000
1"
1.
13
14
1O
0N
0M
1L
0Y
1Z
1[
0\
0:
#90000
0"
0.
03
04
#95000
1"
1.
13
14
0O
1\
1:
1;
0W
1<
#100000
0"
0.
03
04
#105000
1"
1.
13
14
1O
1N
0[
0\
0:
19
1?
0G
0^
0V
0<
0F
#110000
0"
0.
03
04
#115000
1"
1.
13
14
0O
0N
1@
0L
0H
1P
1Y
0a
1[
1\
1J
0E
09
1V
1U
1:
1<
11
1!
#120000
0"
0.
03
04
#125000
1"
1.
13
14
1O
1N
0[
0\
0:
#130000
0"
0.
03
04
#135000
1"
1.
13
14
0O
1\
1:
0;
1=
0T
1W
0<
1>
#140000
0"
0.
03
04
#145000
1"
1.
13
14
1O
0N
1M
0Z
1[
0\
0:
#150000
0"
0.
03
04
#155000
1"
1.
13
14
0O
1\
1:
1;
0W
1<
#160000
0"
0.
03
04
#165000
1"
1.
13
14
1O
1N
0[
0\
0:
#170000
0"
0.
03
04
#175000
1"
1.
13
14
0O
1\
1:
0;
0=
1E
0U
1T
1W
0<
0>
1F
#180000
0"
0.
03
04
#185000
1"
1.
13
14
1O
0N
0M
1L
0Y
1Z
1[
0\
0:
#190000
0"
0.
03
04
#195000
1"
1.
13
14
0O
1\
1:
1;
0W
1<
#200000
0"
0.
03
04
#205000
1"
1.
13
14
1O
1N
0[
0\
0:
#210000
0"
0.
03
04
#215000
1"
1.
13
14
0O
1\
1:
0;
1=
0T
1W
0<
1>
#220000
0"
0.
03
04
#225000
1"
1.
13
14
1O
0N
1M
0Z
1[
0\
0:
#230000
0"
0.
03
04
#235000
1"
1.
13
14
0O
1\
1:
1;
0W
1<
#240000
0"
0.
03
04
#245000
1"
1.
13
14
1O
1N
0[
0\
0:
#250000
0"
0.
03
04
#255000
1"
1.
13
14
0O
1\
1:
0;
0=
1A
0E
1U
0S
1T
1W
0<
0>
1B
0F
#260000
0"
0.
03
04
#265000
1"
1.
13
14
1O
0N
0M
1K
0L
1Y
0X
1Z
1[
0\
0:
#270000
0"
0.
03
04
#275000
1"
1.
13
14
0O
1\
1:
1;
0W
1<
#280000
0"
0.
03
04
#285000
1"
1.
13
14
1O
1N
0[
0\
0:
#290000
0"
0.
03
04
#295000
1"
1.
13
14
0O
1\
1:
0;
1=
0T
1W
0<
1>
#300000
0"
0.
03
04
#305000
1"
1.
13
14
1O
0N
1M
0Z
1[
0\
0:
0?
1C
0]
1^
0>
0B
#310000
0"
0.
03
04
#315000
1"
1.
13
14
16
0O
0M
0@
0K
1D
0Q
1X
1a
1Z
1\
0`
1;
0=
1:
0I
0A
1>
1B
1S
1T
0W
1<
0>
0B
00
0$
#320000
0"
0.
03
04
#325000
1"
1.
13
14
1O
1N
0[
0\
0:
#330000
0"
0.
03
04
#335000
1"
1.
13
14
0O
1\
1:
0;
1=
0T
1W
0<
1>
#340000
0"
0.
03
04
#345000
1"
1.
13
14
1O
0N
1M
0Z
1[
0\
0:
#350000
0"
0.
03
04
#355000
1"
1.
13
14
0O
1\
1:
1;
0W
1<
#360000
0"
0.
03
04
#365000
1"
1.
13
14
1O
1N
0[
0\
0:
#370000
0"
0.
03
04
#375000
1"
1.
13
14
0O
1\
1:
0;
0=
1E
0U
1T
1W
0<
0>
1F
#380000
0"
0.
03
04
#385000
1"
1.
13
14
1O
0N
0M
1L
0Y
1Z
1[
0\
0:
#390000
0"
0.
03
04
#395000
1"
1.
13
14
0O
1\
1:
1;
0W
1<
#400000
0"
0.
03
04
#405000
1"
1.
13
14
1O
1N
0[
0\
0:
07
19
0C
1]
0V
0<
0F
#410000
0"
0.
03
04
#415000
1"
1.
13
14
06
08
0O
0N
0D
0L
1Y
1Q
1[
1\
1_
1`
0J
09
0E
1U
1V
1:
1<
01
0!
#420000
0"
0.
03
04
#425000
1"
1.
13
14
1O
1N
0[
0\
0:
#430000
0"
0.
03
04
#435000
1"
1.
13
14
0O
1\
1:
0;
1=
0T
1W
0<
1>
#440000
0"
0.
03
04
#445000
1"
1.
13
14
1O
0N
1M
0Z
1[
0\
0:
#450000
0"
0.
03
04
#455000
1"
1.
13
14
0O
1\
1:
1;
0W
1<
#460000
0"
0.
03
04
#465000
1"
1.
13
14
1O
1N
0[
0\
0:
#470000
0"
0.
03
04
#475000
1"
1.
13
14
0O
1\
1:
0;
0=
1E
0U
1T
1W
0<
0>
1F
#480000
0"
1#
0.
1/
15
03
04
0R
17
19
1G
0V
0:
0F
#485000
1"
1.
13
14
18
0N
0M
1H
0P
1Z
1[
0_
1;
0E
09
1I
1V
1U
0W
1:
1<
10
1$
#490000
0"
0#
0.
0/
05
03
04
1R
#495000
1"
1.
13
14
1O
1N
0[
0\
0:
#500000
0"
0.
03
04
#505000
1"
1.
13
14
0O
1\
1:
0;
1=
0T
1W
0<
1>
#510000
0"
0.
03
04
#515000
1"
1.
13
14
1O
0N
1M
0Z
1[
0\
0:
#520000
0"
0.
03
04
#525000
1"
1.
13
14
0O
1\
1:
1;
0W
1<
#530000
0"
0.
03
04
#535000
1"
1.
13
14
1O
1N
0[
0\
0:
#540000
0"
0.
03
04
#545000
1"
1.
13
14
0O
1\
1:
0;
0=
1E
0U
1T
1W
0<
0>
1F
#550000
0"
0.
03
04
#555000
1"
1.
13
14
1O
0N
0M
1L
0Y
1Z
1[
0\
0:
#560000
0"
0.
03
04
#565000
1"
1.
13
14
0O
1\
1:
1;
0W
1<
#570000
0"
0.
03
04
#575000
1"
1.
13
14
1O
1N
0[
0\
0:
19
1?
0G
0^
0V
0<
0F
#580000
0"
0.
03
04
#585000
1"
1.
13
14
0O
0N
1@
0L
0H
1P
1Y
0a
1[
1\
1J
0E
09
1V
1U
1:
1<
11
1!
#590000
0"
0.
03
04
#595000
1"
1.
13
14
1O
1N
0[
0\
0:
#600000
0"
0.
03
04
#605000
1"
1.
13
14
0O
1\
1:
0;
1=
0T
1W
0<
1>
#610000
0"
0.
03
04
#615000
1"
1.
13
14
1O
0N
1M
0Z
1[
0\
0:
#620000
0"
0.
03
04
#625000
1"
1.
13
14
0O
1\
1:
1;
0W
1<
#630000
0"
0.
03
04
#635000
1"
1.
13
14
1O
1N
0[
0\
0:
#640000
0"
0.
03
04
#645000
1"
1.
13
14
0O
1\
1:
0;
0=
1E
0U
1T
1W
0<
0>
1F
#650000
0"
0.
03
04
#655000
1"
1.
13
14
1O
0N
0M
1L
0Y
1Z
1[
0\
0:
#660000
0"
0.
03
04
#665000
1"
1.
13
14
0O
1\
1:
1;
0W
1<
#670000
0"
0.
03
04
#675000
1"
1.
13
14
1O
1N
0[
0\
0:
#680000
0"
0.
03
04
#685000
1"
1.
13
14
0O
1\
1:
0;
1=
0T
1W
0<
1>
#690000
0"
0.
03
04
#695000
1"
1.
13
14
1O
0N
1M
0Z
1[
0\
0:
#700000
0"
0.
03
04
#705000
1"
1.
13
14
0O
1\
1:
1;
0W
1<
#710000
0"
0.
03
04
#715000
1"
1.
13
14
1O
1N
0[
0\
0:
#720000
0"
0.
03
04
#725000
1"
1.
13
14
0O
1\
1:
0;
0=
1A
0E
1U
0S
1T
1W
0<
0>
1B
0F
#730000
0"
0.
03
04
#735000
1"
1.
13
14
1O
0N
0M
1K
0L
1Y
0X
1Z
1[
0\
0:
#740000
0"
0.
03
04
#745000
1"
1.
13
14
0O
1\
1:
1;
0W
1<
#750000
0"
0.
03
04
#755000
1"
1.
13
14
1O
1N
0[
0\
0:
#760000
0"
0.
03
04
#765000
1"
1.
13
14
0O
1\
1:
0;
1=
0T
1W
0<
1>
#770000
0"
0.
03
04
#775000
1"
1.
13
14
1O
0N
1M
0Z
1[
0\
0:
0?
1C
0]
1^
0>
0B
#780000
0"
0.
03
04
#785000
1"
1.
13
14
16
0O
0M
0@
0K
1D
0Q
1X
1a
1Z
1\
0`
1;
0=
1:
0I
0A
1>
1B
1S
1T
0W
1<
0>
0B
00
0$
#790000
0"
0.
03
04
#795000
1"
1.
13
14
1O
1N
0[
0\
0:
#800000
0"
0.
03
04
#805000
1"
1.
13
14
0O
1\
1:
0;
1=
0T
1W
0<
1>
#810000
0"
0.
03
04
#815000
1"
1.
13
14
1O
0N
1M
0Z
1[
0\
0:
#820000
0"
0.
03
04
#825000
1"
1.
13
14
0O
1\
1:
1;
0W
1<
#830000
0"
0.
03
04
#835000
1"
1.
13
14
1O
1N
0[
0\
0:
#840000
0"
0.
03
04
#845000
1"
1.
13
14
0O
1\
1:
0;
0=
1E
0U
1T
1W
0<
0>
1F
#850000
0"
0.
03
04
#855000
1"
1.
13
14
1O
0N
0M
1L
0Y
1Z
1[
0\
0:
#860000
0"
0.
03
04
#865000
1"
1.
13
14
0O
1\
1:
1;
0W
1<
#870000
0"
0.
03
04
#875000
1"
1.
13
14
1O
1N
0[
0\
0:
07
19
0C
1]
0V
0<
0F
#880000
0"
0.
03
04
#885000
1"
1.
13
14
06
08
0O
0N
0D
0L
1Y
1Q
1[
1\
1_
1`
0J
09
0E
1U
1V
1:
1<
01
0!
#890000
0"
0.
03
04
#895000
1"
1.
13
14
1O
1N
0[
0\
0:
#900000
0"
0.
03
04
#905000
1"
1.
13
14
0O
1\
1:
0;
1=
0T
1W
0<
1>
#910000
0"
0.
03
04
#915000
1"
1.
13
14
1O
0N
1M
0Z
1[
0\
0:
#920000
0"
0.
03
04
#925000
1"
1.
13
14
0O
1\
1:
1;
0W
1<
#930000
0"
0.
03
04
#935000
1"
1.
13
14
1O
1N
0[
0\
0:
#940000
0"
0.
03
04
#945000
1"
1.
13
14
0O
1\
1:
0;
0=
1E
0U
1T
1W
0<
0>
1F
#950000
0"
0.
03
04
#955000
1"
1.
13
14
1O
0N
0M
1L
0Y
1Z
1[
0\
0:
#960000
0"
0.
03
04
#965000
1"
1.
13
14
0O
1\
1:
1;
0W
1<
#970000
0"
0.
03
04
#975000
1"
1.
13
14
1O
1N
0[
0\
0:
#980000
0"
0.
03
04
#985000
1"
1.
13
14
0O
1\
1:
0;
1=
0T
1W
0<
1>
#990000
0"
0.
03
04
#995000
1"
1.
13
14
1O
0N
1M
0Z
1[
0\
0:
