A1/A1_Task2/simulation/qsim/Subtractor.msim.vcd
$comment
	File created using the following command:
		vcd file Subtractor.msim.vcd -direction
$end
$date
	Sun Feb 09 00:24:05 2020
$end
$version
	ModelSim Version 10.5b
$end
$timescale
	1ps
$end

$scope module subtractor_vhd_vec_tst $end
$var wire 1 ! Cin $end
$var wire 1 " Cout $end
$var wire 1 # Sum [3] $end
$var wire 1 $ Sum [2] $end
$var wire 1 % Sum [1] $end
$var wire 1 & Sum [0] $end
$var wire 1 ' X [3] $end
$var wire 1 ( X [2] $end
$var wire 1 ) X [1] $end
$var wire 1 * X [0] $end
$var wire 1 + Y [3] $end
$var wire 1 , Y [2] $end
$var wire 1 - Y [1] $end
$var wire 1 . Y [0] $end

$scope module i1 $end
$var wire 1 / gnd $end
$var wire 1 0 vcc $end
$var wire 1 1 unknown $end
$var wire 1 2 devoe $end
$var wire 1 3 devclrn $end
$var wire 1 4 devpor $end
$var wire 1 5 ww_devoe $end
$var wire 1 6 ww_devclrn $end
$var wire 1 7 ww_devpor $end
$var wire 1 8 ww_X [3] $end
$var wire 1 9 ww_X [2] $end
$var wire 1 : ww_X [1] $end
$var wire 1 ; ww_X [0] $end
$var wire 1 < ww_Y [3] $end
$var wire 1 = ww_Y [2] $end
$var wire 1 > ww_Y [1] $end
$var wire 1 ? ww_Y [0] $end
$var wire 1 @ ww_Cin $end
$var wire 1 A ww_Cout $end
$var wire 1 B ww_Sum [3] $end
$var wire 1 C ww_Sum [2] $end
$var wire 1 D ww_Sum [1] $end
$var wire 1 E ww_Sum [0] $end
$var wire 1 F \Cin~input_o\ $end
$var wire 1 G \~QUARTUS_CREATED_GND~I_combout\ $end
$var wire 1 H \X[2]~input_o\ $end
$var wire 1 I \Y[0]~input_o\ $end
$var wire 1 J \X[1]~input_o\ $end
$var wire 1 K \X[0]~input_o\ $end
$var wire 1 L \Y[1]~input_o\ $end
$var wire 1 M \sub2|Cout~0_combout\ $end
$var wire 1 N \Y[3]~input_o\ $end
$var wire 1 O \Y[2]~input_o\ $end
$var wire 1 P \X[3]~input_o\ $end
$var wire 1 Q \sub4|Cout~0_combout\ $end
$var wire 1 R \sub1|Sum~0_combout\ $end
$var wire 1 S \sub2|Sum~combout\ $end
$var wire 1 T \sub3|Sum~combout\ $end
$var wire 1 U \sub4|Sum~combout\ $end
$var wire 1 V \ALT_INV_X[2]~input_o\ $end
$var wire 1 W \ALT_INV_Y[2]~input_o\ $end
$var wire 1 X \sub2|ALT_INV_Cout~0_combout\ $end
$var wire 1 Y \ALT_INV_X[1]~input_o\ $end
$var wire 1 Z \ALT_INV_Y[1]~input_o\ $end
$var wire 1 [ \sub2|ALT_INV_Sum~combout\ $end
$var wire 1 \ \sub3|ALT_INV_Sum~combout\ $end
$var wire 1 ] \sub4|ALT_INV_Sum~combout\ $end
$var wire 1 ^ \ALT_INV_X[3]~input_o\ $end
$var wire 1 _ \ALT_INV_Y[3]~input_o\ $end
$var wire 1 ` \ALT_INV_Y[0]~input_o\ $end
$var wire 1 a \ALT_INV_X[0]~input_o\ $end
$upscope $end
$upscope $end
$enddefinitions $end
#0
$dumpvars
0!
1"
0/
10
x1
12
13
14
15
16
17
0@
1A
0F
xG
1H
0I
0J
1K
0L
0M
0N
0O
0P
1Q
1R
1S
0T
1U
0V
1W
1X
1Y
1Z
0[
1\
0]
1^
1_
1`
0a
0'
1(
0)
1*
0+
0,
0-
0.
08
19
0:
1;
0<
0=
0>
0?
0B
1C
0D
1E
0#
1$
0%
1&
$end
#25000
1!
1@
1F
#50000
0!
1'
0*
1+
0@
0;
18
1<
1N
1P
0K
0F
1a
0^
0_
0R
0E
0&
#75000
1!
1@
1F
#100000
0!
0'
1*
0+
0(
1)
1,
1.
0@
1;
1:
09
08
1?
1=
0<
0N
1O
1I
0P
0H
1J
1K
0F
0a
0Y
1V
1^
0`
0W
1_
0Q
0U
0S
1[
1]
0A
1B
1D
0"
1%
1#
#125000
1!
1@
1F
#150000
0!
1'
0*
1+
0)
1-
0@
0;
0:
18
1>
1<
1N
1L
1P
0J
0K
0F
1a
1Y
0^
0Z
0_
1M
1R
1S
1T
0\
0[
0X
1E
0D
0C
1&
0%
0$
#175000
1!
1@
1F
#200000
0!
0'
1*
0+
1)
0-
0,
0.
0@
1;
1:
08
0?
0>
0=
0<
0N
0O
0L
0I
0P
1J
1K
0F
0a
0Y
1^
1`
1Z
1W
1_
0M
0S
1[
1X
1Q
1U
0]
1D
1%
1A
0B
1"
0#
#225000
1!
1@
1F
#250000
0!
1+
0)
1-
1,
1(
0@
1>
1=
1<
0:
19
1H
0J
1N
1O
1L
0F
0Z
0W
0_
1Y
0V
0Q
0U
1M
0T
1\
0X
1]
1U
0]
0A
1B
1C
0"
1$
1#
0B
0#
#275000
1!
1@
1F
#300000
0!
0-
0(
1'
0*
1.
0@
1?
0>
0;
09
18
1P
0H
0K
0L
1I
0F
0`
1Z
1a
1V
0^
0U
1T
0\
1]
1B
0C
0$
1#
#325000
1!
1@
1F
#350000
0!
1-
0'
1*
0.
0,
0@
0?
1>
0=
1;
08
0P
1K
0O
1L
0I
0F
1`
0Z
1W
0a
1^
1U
0T
1\
0]
0B
1C
1$
0#
#375000
1!
1@
1F
#400000
0!
1'
1.
1,
1(
1)
0@
1:
19
18
1?
1=
1O
1I
1P
1H
1J
0F
0Y
0V
0^
0`
0W
0R
0U
0M
1S
1T
0\
0[
1X
1]
1Q
1U
0]
0E
1B
0D
0C
0&
0%
0$
1#
1A
0B
1"
0#
#425000
1!
1@
1F
#450000
0!
0'
0(
0-
0@
09
08
0>
0L
0P
0H
0F
1V
1^
1Z
0S
0Q
0T
1\
1[
0A
1D
1C
0"
1%
1$
#475000
1!
1@
1F
#500000
0!
1'
1(
1-
0,
0*
0+
0@
0;
19
18
1>
0=
0<
0N
0O
1L
1P
1H
0K
0F
1a
0V
0^
0Z
1W
1_
1Q
0U
1M
1R
1T
0\
0X
1]
1E
1A
1B
0C
1&
1"
0$
1#
#525000
1!
1@
1F
#550000
0!
0'
0(
0-
1,
1*
1+
0)
0@
1;
0:
09
08
0>
1=
1<
1N
1O
0L
0P
0H
0J
1K
0F
0a
1Y
1V
1^
1Z
0W
0_
0Q
1U
0M
0R
1S
0T
1\
0[
1X
0]
0E
0A
0B
0D
1C
0&
0"
0%
1$
0#
#575000
1!
1@
1F
#600000
0!
1'
1(
0*
0+
0.
0@
0;
19
18
0?
0<
0N
0I
1P
1H
0K
0F
1a
0V
0^
1`
1_
1Q
0U
1T
0\
1]
1A
1B
0C
1"
0$
1#
#625000
1!
1@
1F
#650000
0!
0(
1*
1+
1.
0@
1;
09
1?
1<
1N
1I
0H
1K
0F
0a
1V
0`
0_
0Q
0T
1\
0A
1C
0"
1$
#675000
1!
1@
1F
#700000
0!
0+
1-
0,
1)
0@
1>
0=
0<
1:
1J
0N
0O
1L
0F
0Z
1W
1_
0Y
1Q
1T
0\
1A
0C
1"
0$
#725000
1!
1@
1F
#750000
0!
1+
0)
1(
0@
1<
0:
19
1H
0J
1N
0F
0_
1Y
0V
1M
0S
1U
0]
1[
0X
1D
0B
1%
0#
#775000
1!
1@
1F
#800000
0!
0+
0(
0-
0*
0.
0@
0?
0>
0<
0;
09
0H
0K
0N
0L
0I
0F
1`
1Z
1_
1a
1V
0M
1S
0[
1X
0U
1]
0D
0%
1B
1#
#825000
1!
1@
1F
#850000
0!
1(
1-
1.
1,
0@
19
1?
1>
1=
1O
1L
1I
1H
0F
0V
0`
0Z
0W
1M
1R
0T
1\
0X
1U
0]
1E
1C
1&
1$
0B
0#
#875000
1!
1@
1F
#900000
0!
1*
1)
0@
1;
1:
1J
1K
0F
0a
0Y
0M
0R
1T
0\
1X
0U
1]
0E
0C
0&
0$
1B
1#
#925000
1!
1@
1F
#950000
0!
0*
0(
0,
1+
0'
0@
0;
09
08
0=
1<
1N
0O
0P
0H
0K
0F
1a
1V
1^
1W
0_
0Q
1M
1R
0S
0T
1\
1[
0X
1U
0]
1E
0A
1D
1C
1&
0"
1%
1$
0B
0#
#975000
1!
1@
1F
