final exam/Q1_b/simulation/qsim/Q1_b.msim.vcd
$comment
	File created using the following command:
		vcd file Q1_b.msim.vcd -direction
$end
$date
	Mon Apr 20 01:30:20 2020
$end
$version
	ModelSim Version 10.5b
$end
$timescale
	1ps
$end

$scope module q1_b_vhd_vec_tst $end
$var wire 1 ! clk $end
$var wire 1 " test_Q_A $end
$var wire 1 # test_Q_B $end

$scope module i1 $end
$var wire 1 $ gnd $end
$var wire 1 % vcc $end
$var wire 1 & unknown $end
$var wire 1 ' devoe $end
$var wire 1 ( devclrn $end
$var wire 1 ) devpor $end
$var wire 1 * ww_devoe $end
$var wire 1 + ww_devclrn $end
$var wire 1 , ww_devpor $end
$var wire 1 - ww_clk $end
$var wire 1 . ww_test_Q_A $end
$var wire 1 / ww_test_Q_B $end
$var wire 1 0 \test_Q_A~output_o\ $end
$var wire 1 1 \test_Q_B~output_o\ $end
$var wire 1 2 \clk~input_o\ $end
$var wire 1 3 \T2|temp_Q~0_combout\ $end
$var wire 1 4 \T2|temp_Q~q\ $end
$var wire 1 5 \T1|temp_Q~0_combout\ $end
$var wire 1 6 \T1|temp_Q~q\ $end
$var wire 1 7 \T2|ALT_INV_temp_Q~q\ $end
$var wire 1 8 \T1|ALT_INV_temp_Q~q\ $end
$upscope $end
$upscope $end
$enddefinitions $end
#0
$dumpvars
0!
0"
0#
0$
1%
x&
1'
1(
1)
1*
1+
1,
0-
0.
0/
00
01
02
13
04
05
06
17
18
$end
#25000
1!
1-
12
14
07
03
15
11
1/
1#
#50000
0!
0-
02
#75000
1!
1-
12
04
16
08
17
05
10
01
1.
0/
1"
0#
#100000
0!
0-
02
#125000
1!
1-
12
06
18
13
00
0.
0"
#150000
0!
0-
02
#175000
1!
1-
12
14
07
03
15
11
1/
1#
#200000
0!
0-
02
#225000
1!
1-
12
04
16
08
17
05
10
01
1.
0/
1"
0#
#250000
0!
0-
02
#275000
1!
1-
12
06
18
13
00
0.
0"
#300000
0!
0-
02
#325000
1!
1-
12
14
07
03
15
11
1/
1#
#350000
0!
0-
02
#375000
1!
1-
12
04
16
08
17
05
10
01
1.
0/
1"
0#
#400000
0!
0-
02
#425000
1!
1-
12
06
18
13
00
0.
0"
#450000
0!
0-
02
#475000
1!
1-
12
14
07
03
15
11
1/
1#
#500000
0!
0-
02
#525000
1!
1-
12
04
16
08
17
05
10
01
1.
0/
1"
0#
#550000
0!
0-
02
#575000
1!
1-
12
06
18
13
00
0.
0"
#600000
0!
0-
02
#625000
1!
1-
12
14
07
03
15
11
1/
1#
#650000
0!
0-
02
#675000
1!
1-
12
04
16
08
17
05
10
01
1.
0/
1"
0#
#700000
0!
0-
02
#725000
1!
1-
12
06
18
13
00
0.
0"
#750000
0!
0-
02
#775000
1!
1-
12
14
07
03
15
11
1/
1#
#800000
0!
0-
02
#825000
1!
1-
12
04
16
08
17
05
10
01
1.
0/
1"
0#
#850000
0!
0-
02
#875000
1!
1-
12
06
18
13
00
0.
0"
#900000
0!
0-
02
#925000
1!
1-
12
14
07
03
15
11
1/
1#
#950000
0!
0-
02
#975000
1!
1-
12
04
16
08
17
05
10
01
1.
0/
1"
0#
