A2/A2_Task2/simulation/qsim/ward_switch_7.msim.vcd
$comment
	File created using the following command:
		vcd file ward_switch_7.msim.vcd -direction
$end
$date
	Sun Feb 16 23:39:57 2020
$end
$version
	ModelSim Version 10.5b
$end
$timescale
	1ps
$end

$scope module ward_switch_7_vhd_vec_tst $end
$var wire 1 ! input [7] $end
$var wire 1 " input [6] $end
$var wire 1 # input [5] $end
$var wire 1 $ input [4] $end
$var wire 1 % input [3] $end
$var wire 1 & input [2] $end
$var wire 1 ' input [1] $end
$var wire 1 ( input [0] $end
$var wire 1 ) output [6] $end
$var wire 1 * output [5] $end
$var wire 1 + output [4] $end
$var wire 1 , output [3] $end
$var wire 1 - output [2] $end
$var wire 1 . output [1] $end
$var wire 1 / output [0] $end
$var wire 1 0 signal_3 [2] $end
$var wire 1 1 signal_3 [1] $end
$var wire 1 2 signal_3 [0] $end

$scope module i1 $end
$var wire 1 3 gnd $end
$var wire 1 4 vcc $end
$var wire 1 5 unknown $end
$var wire 1 6 devoe $end
$var wire 1 7 devclrn $end
$var wire 1 8 devpor $end
$var wire 1 9 ww_devoe $end
$var wire 1 : ww_devclrn $end
$var wire 1 ; ww_devpor $end
$var wire 1 < ww_input [7] $end
$var wire 1 = ww_input [6] $end
$var wire 1 > ww_input [5] $end
$var wire 1 ? ww_input [4] $end
$var wire 1 @ ww_input [3] $end
$var wire 1 A ww_input [2] $end
$var wire 1 B ww_input [1] $end
$var wire 1 C ww_input [0] $end
$var wire 1 D ww_output [6] $end
$var wire 1 E ww_output [5] $end
$var wire 1 F ww_output [4] $end
$var wire 1 G ww_output [3] $end
$var wire 1 H ww_output [2] $end
$var wire 1 I ww_output [1] $end
$var wire 1 J ww_output [0] $end
$var wire 1 K ww_signal_3 [2] $end
$var wire 1 L ww_signal_3 [1] $end
$var wire 1 M ww_signal_3 [0] $end
$var wire 1 N \~QUARTUS_CREATED_GND~I_combout\ $end
$var wire 1 O \input[2]~input_o\ $end
$var wire 1 P \input[1]~input_o\ $end
$var wire 1 Q \input[5]~input_o\ $end
$var wire 1 R \input[4]~input_o\ $end
$var wire 1 S \input[3]~input_o\ $end
$var wire 1 T \encoder|encoder_out[2]~0_combout\ $end
$var wire 1 U \input[7]~input_o\ $end
$var wire 1 V \input[6]~input_o\ $end
$var wire 1 W \decoder|Mux6~0_combout\ $end
$var wire 1 X \input[0]~input_o\ $end
$var wire 1 Y \decoder|Mux5~0_combout\ $end
$var wire 1 Z \encoder|encoder_out[0]~1_combout\ $end
$var wire 1 [ \decoder|Mux4~0_combout\ $end
$var wire 1 \ \decoder|Mux3~0_combout\ $end
$var wire 1 ] \decoder|Mux3~1_combout\ $end
$var wire 1 ^ \encoder|encoder_out[2]~4_combout\ $end
$var wire 1 _ \encoder|encoder_out~3_combout\ $end
$var wire 1 ` \encoder|encoder_out[0]~2_combout\ $end
$var wire 1 a \decoder|Mux2~0_combout\ $end
$var wire 1 b \decoder|Mux1~0_combout\ $end
$var wire 1 c \decoder|Mux0~0_combout\ $end
$var wire 1 d \encoder|encoder_out[0]~5_combout\ $end
$var wire 1 e \encoder|encoder_out[1]~6_combout\ $end
$var wire 1 f \encoder|ALT_INV_encoder_out[2]~0_combout\ $end
$var wire 1 g \ALT_INV_input[1]~input_o\ $end
$var wire 1 h \ALT_INV_input[2]~input_o\ $end
$var wire 1 i \encoder|ALT_INV_encoder_out[0]~1_combout\ $end
$var wire 1 j \decoder|ALT_INV_Mux4~0_combout\ $end
$var wire 1 k \decoder|ALT_INV_Mux3~0_combout\ $end
$var wire 1 l \encoder|ALT_INV_encoder_out[0]~2_combout\ $end
$var wire 1 m \encoder|ALT_INV_encoder_out~3_combout\ $end
$var wire 1 n \encoder|ALT_INV_encoder_out[2]~4_combout\ $end
$var wire 1 o \decoder|ALT_INV_Mux2~0_combout\ $end
$var wire 1 p \ALT_INV_input[5]~input_o\ $end
$var wire 1 q \ALT_INV_input[3]~input_o\ $end
$var wire 1 r \ALT_INV_input[4]~input_o\ $end
$var wire 1 s \ALT_INV_input[6]~input_o\ $end
$var wire 1 t \ALT_INV_input[7]~input_o\ $end
$var wire 1 u \ALT_INV_input[0]~input_o\ $end
$upscope $end
$upscope $end
$enddefinitions $end
#0
$dumpvars
03
14
x5
16
17
18
19
1:
1;
xN
0O
0P
0Q
0R
0S
1T
0U
0V
0W
0X
1Y
0Z
0[
1\
1]
0^
1_
1`
0a
1b
1c
0d
0e
0f
1g
1h
1i
1j
0k
0l
0m
1n
1o
1p
1q
1r
1s
1t
1u
0!
0"
0#
0$
0%
0&
0'
0(
0<
0=
0>
0?
0@
0A
0B
0C
1D
1E
1F
1G
1H
1I
0J
0K
0L
0M
1)
1*
1+
1,
1-
1.
0/
00
01
02
$end
#50000
1&
1'
1(
1C
1B
1A
1O
1P
1X
0u
0g
0h
1W
0_
0Y
1Z
0i
1m
1e
1[
1d
0j
0I
1J
1/
0.
1M
1L
0H
12
11
0-
#100000
0(
1%
0C
1@
1S
0X
1u
0q
0T
1^
1_
0Z
0\
1k
1i
0m
0n
1f
1Y
0e
0c
0d
0]
1K
10
0G
0M
0D
0L
1I
1.
0,
0)
02
01
#150000
1(
0%
0'
1$
1C
0B
0@
1?
1R
0S
0P
1X
0u
1g
1q
0r
1]
0`
1Z
1\
0k
0i
1l
0b
1c
1d
1G
1,
1M
1D
0E
12
0*
1)
#200000
0(
1%
0C
1@
1S
0X
1u
0q
0Z
0\
1k
1i
#250000
1(
0%
1'
0$
0&
1#
1C
1B
0A
0@
0?
1>
1Q
0R
0S
0O
1P
1X
0u
0g
1h
1q
1r
0p
1`
0[
0_
1\
0k
1m
1j
0l
0d
1e
1H
1-
1L
0M
02
11
#300000
0(
1%
0C
1@
1S
0X
1u
0q
0\
1k
#350000
1(
0%
0'
1$
1C
0B
0@
1?
1R
0S
0P
1X
0u
1g
1q
0r
#400000
0(
1%
0C
1@
1S
0X
1u
0q
#450000
1(
1'
1&
1C
1B
1A
1O
1P
1X
0u
0g
0h
#500000
0(
0%
0$
0#
1"
0C
0@
0?
0>
1=
1V
0Q
0R
0S
0X
1u
1q
1r
1p
0s
0W
0]
0`
1T
1[
0Y
1Z
1\
0k
0i
0j
0f
1l
1b
1d
0I
0G
0J
0H
0/
0.
0,
0-
1M
1E
12
1*
#550000
1(
1%
0'
1C
0B
1@
1S
0P
1X
0u
1g
0q
0T
0Z
0\
1k
1i
1f
#600000
0(
0%
1$
0C
0@
1?
1R
0S
0X
1u
1q
0r
1Z
1\
0k
0i
#650000
1(
1%
1'
0&
1C
1B
0A
1@
1S
0O
1P
1X
0u
0g
1h
0q
0Z
0\
1k
1i
#700000
0(
0%
0$
1#
0C
0@
0?
1>
1Q
0R
0S
0X
1u
1q
1r
0p
1\
0k
#750000
1(
1%
0'
1C
0B
1@
1S
0P
1X
0u
1g
0q
0\
1k
#800000
0(
0%
1$
0C
0@
1?
1R
0S
0X
1u
1q
0r
1\
0k
#850000
1(
1'
1&
1C
1B
1A
1O
1P
1X
0u
0g
0h
#900000
0(
1%
0C
1@
1S
0X
1u
0q
0\
1k
#950000
1(
0%
0'
0$
0#
0"
1!
1C
0B
0@
0?
0>
0=
1<
1U
0V
0Q
0R
0S
0P
1X
0u
1g
1q
1r
1p
1s
0t
0c
0d
0e
1]
1`
1T
0[
0^
1Y
1Z
1\
0k
0i
1n
1j
0f
0l
1c
1I
0K
1G
0L
0M
0D
1H
1.
1,
0)
02
01
00
1-
1D
1)
