A1_Task1/simulation/qsim/A1_Task1.msim.vcd
$comment
	File created using the following command:
		vcd file A1_Task1.msim.vcd -direction
$end
$date
	Sat Feb 08 20:33:36 2020
$end
$version
	ModelSim Version 10.5b
$end
$timescale
	1ps
$end

$scope module a1_task1_vhd_vec_tst $end
$var wire 1 ! A $end
$var wire 1 " B $end
$var wire 1 # C $end
$var wire 1 $ F $end

$scope module i1 $end
$var wire 1 % gnd $end
$var wire 1 & vcc $end
$var wire 1 ' unknown $end
$var wire 1 ( devoe $end
$var wire 1 ) devclrn $end
$var wire 1 * devpor $end
$var wire 1 + ww_devoe $end
$var wire 1 , ww_devclrn $end
$var wire 1 - ww_devpor $end
$var wire 1 . ww_A $end
$var wire 1 / ww_B $end
$var wire 1 0 ww_C $end
$var wire 1 1 ww_F $end
$var wire 1 2 \~QUARTUS_CREATED_GND~I_combout\ $end
$var wire 1 3 \A~input_o\ $end
$var wire 1 4 \C~input_o\ $end
$var wire 1 5 \B~input_o\ $end
$var wire 1 6 \O1|F_or_3~0_combout\ $end
$var wire 1 7 \ALT_INV_B~input_o\ $end
$var wire 1 8 \ALT_INV_C~input_o\ $end
$var wire 1 9 \ALT_INV_A~input_o\ $end
$upscope $end
$upscope $end
$enddefinitions $end
#0
$dumpvars
0!
0"
0#
0$
0%
1&
x'
1(
1)
1*
1+
1,
1-
0.
0/
00
01
x2
03
04
05
06
17
18
19
$end
#50000
1!
1.
13
09
#75000
1#
10
14
08
16
11
1$
#100000
0!
1"
0.
1/
15
03
19
07
#150000
1!
0#
1.
00
04
13
09
18
#200000
0!
0"
0.
0/
05
03
19
17
06
01
0$
#225000
1#
10
14
08
#250000
1!
1.
13
09
16
11
1$
#300000
0!
0#
1"
0.
00
1/
15
04
03
19
18
07
06
01
0$
#350000
1!
1.
13
09
16
11
1$
#375000
1#
10
14
08
#400000
0!
0"
0.
0/
05
03
19
17
06
01
0$
#450000
1!
0#
1.
00
04
13
09
18
#500000
0!
1"
0.
1/
15
03
19
07
#525000
1#
10
14
08
16
11
1$
#550000
1!
1.
13
09
#600000
0!
0#
0"
0.
00
0/
05
04
03
19
18
17
06
01
0$
#650000
1!
1.
13
09
#675000
1#
10
14
08
16
11
1$
#700000
0!
1"
0.
1/
15
03
19
07
#750000
1!
0#
1.
00
04
13
09
18
#800000
0!
0"
0.
0/
05
03
19
17
06
01
0$
#825000
1#
10
14
08
#850000
1!
1.
13
09
16
11
1$
#900000
0!
0#
1"
0.
00
1/
15
04
03
19
18
07
06
01
0$
#950000
1!
1.
13
09
16
11
1$
#975000
1#
10
14
08
