final exam/Q1/simulation/qsim/Q1.msim.vcd
$comment
	File created using the following command:
		vcd file Q1.msim.vcd -direction
$end
$date
	Sun Apr 19 22:33:16 2020
$end
$version
	ModelSim Version 10.5b
$end
$timescale
	1ps
$end

$scope module q1_vhd_vec_tst $end
$var wire 1 ! A $end
$var wire 1 " B $end
$var wire 1 # C $end
$var wire 1 $ D $end
$var wire 1 % F_Q1 $end

$scope module i1 $end
$var wire 1 & gnd $end
$var wire 1 ' vcc $end
$var wire 1 ( unknown $end
$var wire 1 ) devoe $end
$var wire 1 * devclrn $end
$var wire 1 + devpor $end
$var wire 1 , ww_devoe $end
$var wire 1 - ww_devclrn $end
$var wire 1 . ww_devpor $end
$var wire 1 / ww_A $end
$var wire 1 0 ww_B $end
$var wire 1 1 ww_C $end
$var wire 1 2 ww_D $end
$var wire 1 3 ww_F_Q1 $end
$var wire 1 4 \F_Q1~output_o\ $end
$var wire 1 5 \A~input_o\ $end
$var wire 1 6 \B~input_o\ $end
$var wire 1 7 \C~input_o\ $end
$var wire 1 8 \D~input_o\ $end
$var wire 1 9 \m1|F_mux4~0_combout\ $end
$var wire 1 : \ALT_INV_D~input_o\ $end
$var wire 1 ; \ALT_INV_C~input_o\ $end
$var wire 1 < \ALT_INV_B~input_o\ $end
$var wire 1 = \ALT_INV_A~input_o\ $end
$upscope $end
$upscope $end
$enddefinitions $end
#0
$dumpvars
0!
0"
0#
0$
1%
0&
1'
x(
1)
1*
1+
1,
1-
1.
0/
00
01
02
13
14
05
06
07
08
19
1:
1;
1<
1=
$end
#25000
1#
11
17
0;
#50000
0#
1$
01
12
18
07
1;
0:
#75000
1#
11
17
0;
#100000
0#
0$
01
02
08
07
1;
1:
#125000
1#
11
17
0;
#150000
0#
1$
01
12
18
07
1;
0:
#175000
1#
11
17
0;
#200000
0#
0$
01
02
08
07
1;
1:
#210000
1"
10
16
0<
09
04
03
0%
#225000
1#
11
17
0;
#250000
0#
1$
01
12
18
07
1;
0:
#275000
1#
11
17
0;
#300000
0#
0$
01
02
08
07
1;
1:
#325000
1#
11
17
0;
#350000
0#
1$
01
12
18
07
1;
0:
#375000
1#
11
17
0;
#400000
0#
0$
01
02
08
07
1;
1:
#425000
1#
11
17
0;
#440000
0"
1!
00
1/
15
06
1<
0=
#450000
0#
1$
01
12
18
07
1;
0:
19
14
13
1%
#475000
1#
11
17
0;
#500000
0#
0$
01
02
08
07
1;
1:
09
04
03
0%
#525000
1#
11
17
0;
#550000
0#
1$
01
12
18
07
1;
0:
19
14
13
1%
#575000
1#
11
17
0;
#600000
0#
0$
01
02
08
07
1;
1:
09
04
03
0%
#625000
1#
11
17
0;
#650000
0#
1$
01
12
18
07
1;
0:
19
14
13
1%
#675000
1#
11
17
0;
#700000
0#
0$
01
02
08
07
1;
1:
09
04
03
0%
#725000
1#
11
17
0;
#730000
1"
10
16
0<
#750000
0#
1$
01
12
18
07
1;
0:
19
14
13
1%
#775000
1#
11
17
0;
#800000
0#
0$
01
02
08
07
1;
1:
#825000
1#
11
17
0;
09
04
03
0%
#850000
0#
1$
01
12
18
07
1;
0:
19
14
13
1%
#875000
1#
11
17
0;
#900000
0#
0$
01
02
08
07
1;
1:
#925000
1#
11
17
0;
09
04
03
0%
#950000
0#
1$
01
12
18
07
1;
0:
19
14
13
1%
#975000
1#
11
17
0;
