A1_Task3/simulation/qsim/16mux.msim.vcd
$comment
	File created using the following command:
		vcd file 16mux.msim.vcd -direction
$end
$date
	Sun Feb 09 16:46:10 2020
$end
$version
	ModelSim Version 10.5b
$end
$timescale
	1ps
$end

$scope module mux16_vhd_vec_tst $end
$var wire 1 ! d0 $end
$var wire 1 " d1 $end
$var wire 1 # d2 $end
$var wire 1 $ d3 $end
$var wire 1 % d4 $end
$var wire 1 & d5 $end
$var wire 1 ' d6 $end
$var wire 1 ( d7 $end
$var wire 1 ) d8 $end
$var wire 1 * d9 $end
$var wire 1 + d10 $end
$var wire 1 , d11 $end
$var wire 1 - d12 $end
$var wire 1 . d13 $end
$var wire 1 / d14 $end
$var wire 1 0 d15 $end
$var wire 1 1 F_mux16 $end
$var wire 1 2 s0 $end
$var wire 1 3 s1 $end
$var wire 1 4 s2 $end
$var wire 1 5 s3 $end

$scope module i1 $end
$var wire 1 6 gnd $end
$var wire 1 7 vcc $end
$var wire 1 8 unknown $end
$var wire 1 9 devoe $end
$var wire 1 : devclrn $end
$var wire 1 ; devpor $end
$var wire 1 < ww_devoe $end
$var wire 1 = ww_devclrn $end
$var wire 1 > ww_devpor $end
$var wire 1 ? ww_s0 $end
$var wire 1 @ ww_s1 $end
$var wire 1 A ww_s2 $end
$var wire 1 B ww_s3 $end
$var wire 1 C ww_d0 $end
$var wire 1 D ww_d1 $end
$var wire 1 E ww_d2 $end
$var wire 1 F ww_d3 $end
$var wire 1 G ww_d4 $end
$var wire 1 H ww_d5 $end
$var wire 1 I ww_d6 $end
$var wire 1 J ww_d7 $end
$var wire 1 K ww_d8 $end
$var wire 1 L ww_d9 $end
$var wire 1 M ww_d10 $end
$var wire 1 N ww_d11 $end
$var wire 1 O ww_d12 $end
$var wire 1 P ww_d13 $end
$var wire 1 Q ww_d14 $end
$var wire 1 R ww_d15 $end
$var wire 1 S ww_F_mux16 $end
$var wire 1 T \~QUARTUS_CREATED_GND~I_combout\ $end
$var wire 1 U \s0~input_o\ $end
$var wire 1 V \d7~input_o\ $end
$var wire 1 W \d6~input_o\ $end
$var wire 1 X \s2~input_o\ $end
$var wire 1 Y \d5~input_o\ $end
$var wire 1 Z \s3~input_o\ $end
$var wire 1 [ \d4~input_o\ $end
$var wire 1 \ \mux2_1|O1|F_or_2~1_combout\ $end
$var wire 1 ] \d13~input_o\ $end
$var wire 1 ^ \d15~input_o\ $end
$var wire 1 _ \d12~input_o\ $end
$var wire 1 ` \d14~input_o\ $end
$var wire 1 a \mux2_1|O1|F_or_2~3_combout\ $end
$var wire 1 b \d11~input_o\ $end
$var wire 1 c \d10~input_o\ $end
$var wire 1 d \d9~input_o\ $end
$var wire 1 e \d8~input_o\ $end
$var wire 1 f \mux2_1|O1|F_or_2~2_combout\ $end
$var wire 1 g \s1~input_o\ $end
$var wire 1 h \d2~input_o\ $end
$var wire 1 i \d0~input_o\ $end
$var wire 1 j \d1~input_o\ $end
$var wire 1 k \d3~input_o\ $end
$var wire 1 l \mux2_1|O1|F_or_2~0_combout\ $end
$var wire 1 m \mux2_1|O1|F_or_2~4_combout\ $end
$var wire 1 n \ALT_INV_s0~input_o\ $end
$var wire 1 o \ALT_INV_s1~input_o\ $end
$var wire 1 p \ALT_INV_d15~input_o\ $end
$var wire 1 q \ALT_INV_d14~input_o\ $end
$var wire 1 r \ALT_INV_d13~input_o\ $end
$var wire 1 s \ALT_INV_d12~input_o\ $end
$var wire 1 t \ALT_INV_d11~input_o\ $end
$var wire 1 u \ALT_INV_d10~input_o\ $end
$var wire 1 v \ALT_INV_d9~input_o\ $end
$var wire 1 w \ALT_INV_d8~input_o\ $end
$var wire 1 x \ALT_INV_d7~input_o\ $end
$var wire 1 y \ALT_INV_d6~input_o\ $end
$var wire 1 z \ALT_INV_d5~input_o\ $end
$var wire 1 { \ALT_INV_d4~input_o\ $end
$var wire 1 | \ALT_INV_s2~input_o\ $end
$var wire 1 } \ALT_INV_s3~input_o\ $end
$var wire 1 ~ \ALT_INV_d3~input_o\ $end
$var wire 1 !! \ALT_INV_d2~input_o\ $end
$var wire 1 "! \ALT_INV_d1~input_o\ $end
$var wire 1 #! \ALT_INV_d0~input_o\ $end
$var wire 1 $! \mux2_1|O1|ALT_INV_F_or_2~3_combout\ $end
$var wire 1 %! \mux2_1|O1|ALT_INV_F_or_2~2_combout\ $end
$var wire 1 &! \mux2_1|O1|ALT_INV_F_or_2~1_combout\ $end
$var wire 1 '! \mux2_1|O1|ALT_INV_F_or_2~0_combout\ $end
$upscope $end
$upscope $end
$enddefinitions $end
#0
$dumpvars
0!
1"
0#
0$
0%
0&
0'
1(
1)
1*
1+
0,
0-
1.
0/
10
11
12
03
14
05
06
17
x8
19
1:
1;
1<
1=
1>
1?
0@
1A
0B
0C
1D
0E
0F
0G
0H
0I
1J
1K
1L
1M
0N
0O
1P
0Q
1R
1S
xT
1U
1V
0W
1X
0Y
0Z
0[
0\
1]
1^
0_
0`
0a
0b
1c
1d
1e
1f
0g
0h
0i
1j
0k
0l
1m
0n
1o
0p
1q
0r
1s
1t
0u
0v
0w
0x
1y
1z
1{
0|
1}
1~
1!!
0"!
1#!
1$!
0%!
1&!
1'!
$end
#20000
02
13
04
0?
1@
0A
0X
1g
0U
1n
0o
1|
0m
0S
01
#40000
12
03
14
15
1?
0@
1A
1B
1Z
1X
0g
1U
0n
1o
0|
0}
1\
1a
0f
1m
1%!
0$!
0&!
0m
1S
11
0S
01
#50000
1!
0"
1#
1&
1'
0+
1C
0D
1E
1H
1I
0M
0c
1W
1Y
1h
0j
1i
0#!
1"!
0!!
0z
0y
1u
#60000
02
13
0?
1@
1g
0U
1n
0o
1m
1S
11
#80000
12
04
05
1?
0A
0B
0Z
0X
1U
0n
1|
1}
0\
0a
1f
1l
0'!
0%!
1$!
1&!
0m
0S
01
#100000
15
03
0&
1+
0(
0)
0*
1,
0.
1/
1B
0@
0H
1M
0J
0K
0L
1N
0P
1Q
1`
0]
1b
0d
0e
0V
1c
0Y
0g
1Z
0}
1o
1z
0u
1x
1w
1v
0t
1r
0q
1m
0f
0l
1'!
1%!
0m
1S
11
0S
01
#120000
13
1@
1g
0o
#140000
03
0@
0g
1o
#150000
1&
1.
0!
1"
0'
1-
1H
1P
0C
1D
0I
1O
1_
0W
1j
0i
1]
1Y
0z
0r
1#!
0"!
1y
0s
1l
1a
1\
0&!
0$!
0'!
#160000
02
0?
0U
1n
1m
1S
11
#180000
14
1A
1X
0|
0\
1f
0l
1'!
0%!
1&!
0m
0S
01
#200000
04
0.
1!
0"
1'
13
05
0+
1(
0,
0#
1%
00
0A
0P
1C
0D
1I
1@
0B
0M
1J
0N
0E
1G
0R
0^
1[
0h
0b
1V
0c
0Z
1g
1W
0j
1i
0]
0X
1|
1r
0#!
1"!
0y
0o
1}
1u
0x
1t
1!!
0{
1p
1\
0f
1l
0'!
1%!
0&!
1m
1S
11
#220000
12
1?
1U
0n
#240000
02
14
15
0?
1A
1B
1Z
1X
0U
1n
0|
0}
0a
0l
1'!
1$!
#250000
1.
1"
0'
1+
1,
0/
1P
1D
0I
1M
1N
0Q
0`
1b
1c
0W
1j
1]
0r
0"!
1y
0u
0t
1q
1f
0%!
#260000
05
03
0B
0@
0g
0Z
1}
1o
0m
0\
1&!
0S
01
#280000
04
0A
0X
1|
1\
1a
0f
1l
0'!
1%!
0$!
0&!
1m
1S
11
#300000
15
13
0.
0"
1'
0+
12
0!
1#
10
0-
1)
1B
1@
0P
0D
1I
0M
1?
0C
1E
1R
0O
1K
1e
0_
1^
1h
0i
1U
0c
1W
0j
0]
1g
1Z
0}
0o
1r
1"!
0y
1u
0n
1#!
0!!
0p
1s
0w
0a
0l
1'!
1$!
0m
0S
01
#320000
05
03
0B
0@
0g
0Z
1}
1o
1f
0%!
1m
1S
11
#340000
13
14
1@
1A
1X
1g
0o
0|
0f
1l
0m
0'!
1%!
0S
01
#350000
0'
1+
0#
1-
0,
1/
0(
0%
0&
0I
1M
0E
1O
0N
1Q
0J
0G
0H
0Y
0[
0V
1`
0b
1_
0h
1c
0W
1y
0u
1!!
0s
1t
0q
1x
1{
1z
1a
0l
1f
0\
1&!
0%!
1'!
0$!
1m
1S
11
#360000
03
04
15
0@
0A
1B
1Z
0X
0g
1o
1|
0}
0a
0f
1%!
1$!
0m
0S
01
#380000
14
05
1A
0B
0Z
1X
0|
1}
1a
1f
0%!
0$!
1m
1S
11
#400000
04
15
1'
1#
1,
1(
1%
02
1!
0)
1$
0A
1B
1I
1E
1N
1J
1G
0?
1C
0K
1F
1k
0e
1i
0U
1[
1V
1b
1h
1W
1Z
0X
1|
0}
0y
0!!
0t
0x
0{
1n
0#!
1w
0~
0m
0a
0f
1%!
1$!
0S
01
#420000
05
13
0B
1@
1g
0Z
1}
0o
1\
1a
1l
0'!
0$!
0&!
1m
1S
11
#440000
03
14
12
0@
1A
1?
1U
1X
0g
1o
0|
0n
1f
0m
0%!
1m
0S
01
1S
11
#450000
0!
1)
0$
1.
1"
0C
1K
0F
1P
1D
1j
1]
0k
1e
0i
1#!
0w
1~
0r
0"!
#460000
13
04
1@
0A
0X
1g
0o
1|
0l
1'!
#480000
03
14
02
15
0@
1A
0?
1B
1Z
0U
1X
0g
1o
0|
1n
0}
0m
0S
01
#500000
13
04
05
1!
0)
1$
0.
0"
0#
0(
0%
0+
0/
1@
0A
0B
1C
0K
1F
0P
0D
0E
0J
0G
0M
0Q
0`
0c
0[
0V
0h
0j
0]
1k
0e
1i
0Z
0X
1g
0o
1|
1}
0#!
1w
0~
1r
1"!
1!!
1x
1{
1u
1q
0\
0f
1l
1m
0'!
1%!
1&!
0m
1S
11
0S
01
#520000
14
1A
1X
0|
1\
0a
0l
1'!
1$!
0&!
1m
1S
11
#540000
03
0@
0g
1o
0m
0S
01
#550000
0!
0$
1+
0-
1&
1*
0C
0F
1M
0O
1H
1L
1d
1Y
0_
1c
0k
0i
1#!
1~
0u
1s
0z
0v
1f
0%!
#560000
13
04
12
1@
0A
1?
1U
0X
1g
0o
1|
0n
0\
0f
1%!
1&!
#580000
03
14
0@
1A
1X
0g
1o
0|
1\
1f
0%!
0&!
1m
1S
11
#600000
13
04
02
1$
0&
1)
1.
1(
0'
1@
0A
0?
1F
0H
1K
1P
1J
0I
0W
1V
1]
1e
0Y
1k
0U
0X
1g
0o
1|
1n
0~
1z
0w
0r
0x
1y
0\
1&!
0m
0S
01
#620000
03
14
0@
1A
1X
0g
1o
0|
#640000
04
0A
0X
1|
#650000
0$
1&
0.
1'
1!
0*
1#
1/
00
0F
1H
0P
1I
1C
0L
1E
1Q
0R
0^
1`
1h
0d
1i
1W
0]
1Y
0k
1~
0z
1r
0y
0#!
1v
0!!
0q
1p
1l
0'!
1m
1S
11
#660000
14
13
15
1A
1@
1B
1Z
1g
1X
0|
0o
0}
0m
1\
0l
1'!
0&!
1m
0S
01
1S
11
#680000
03
05
0@
0B
0Z
0g
1o
1}
1a
1l
0m
0'!
0$!
1m
0S
01
1S
11
#700000
0&
0'
0#
0/
10
0)
0(
0+
1-
1%
0H
0I
0E
0Q
1R
0K
0J
0M
1O
1G
1[
1_
0c
0V
0e
1^
0`
0h
0W
0Y
1z
1y
1!!
1q
0p
1w
1x
1u
0s
0{
0f
0a
0l
0\
1&!
1'!
1$!
1%!
0m
0S
01
#720000
13
04
12
1@
0A
1?
1U
0X
1g
0o
1|
0n
1\
1a
1l
0'!
0$!
0&!
1m
1S
11
#740000
03
14
15
0@
1A
1B
1Z
1X
0g
1o
0|
0}
0\
1f
0l
0m
1'!
0%!
1&!
1m
0S
01
1S
11
#750000
1&
1'
1#
1/
1)
1(
1+
0%
1$
1.
0!
1*
1"
0,
1H
1I
1E
1Q
1K
1J
1M
0G
1F
1P
0C
1L
1D
0N
0b
1j
1d
0i
1]
1k
0[
1c
1V
1e
1`
1h
1W
1Y
0z
0y
0!!
0q
0w
0x
0u
1{
0~
0r
1#!
0v
0"!
1t
0f
1l
1\
0&!
0'!
1%!
0m
0S
01
#760000
02
0?
0U
1n
1m
1S
11
#780000
12
04
05
1?
0A
0B
0Z
0X
1U
0n
1|
1}
0\
1f
0l
0m
1'!
0%!
1&!
1m
0S
01
1S
11
#800000
02
14
15
0&
0(
1%
0$
0.
1!
0*
13
00
0?
1A
1B
0H
0J
1G
0F
0P
1C
0L
1@
0R
0^
1g
0d
1i
0]
0k
1[
0V
0Y
1Z
1X
0U
1n
0|
0}
1z
1x
0{
1~
1r
0#!
1v
0o
1p
0a
0f
0m
1%!
1$!
0S
01
#820000
03
0@
0g
1o
#840000
04
0A
0X
1|
1l
0'!
1m
1S
11
#850000
1(
0%
1.
1*
10
0'
0/
0)
0+
0"
0-
1J
0G
1P
1L
1R
0I
0Q
0K
0M
0D
0O
0_
0j
0c
0e
0`
0W
1^
1d
1]
0[
1V
0x
1{
0r
0v
0p
1y
1q
1w
1u
1"!
1s
0l
1f
1a
0$!
0%!
1'!
0m
0S
01
#860000
13
12
1@
1?
1U
1g
0o
0n
1m
1S
11
#880000
03
14
0@
1A
1X
0g
1o
0|
1\
0f
1%!
0&!
0m
0S
01
#900000
02
0.
00
1)
1"
1-
1&
1$
1,
0?
0P
0R
1K
1D
1O
1H
1F
1N
1b
1k
1Y
1_
1j
1e
0^
0]
0U
1n
1r
1p
0w
0"!
0s
0z
0~
0t
1l
1f
0a
1$!
0%!
0'!
1m
1S
11
#940000
12
04
05
1?
0A
0B
0Z
0X
1U
0n
1|
1}
0\
1a
0$!
1&!
#950000
0"
0$
0*
0!
0D
0F
0L
0C
0i
0d
0k
0j
1"!
1~
1v
1#!
0l
1'!
#960000
15
1B
1Z
0}
1\
0a
0f
1%!
1$!
0&!
0m
0S
01
#980000
05
02
14
13
0B
0?
1A
1@
1g
1X
0U
0Z
1}
1n
0|
0o
1m
0\
1l
0'!
1&!
0m
1S
11
0S
01
